{
	"IcoMoonType": "selection",
	"icons": [
		{
			"icon": {
				"paths": [
					"M127.62 64v0c-35.089 0-63.62 28.548-63.62 63.62v768.76c0 35.089 28.548 63.62 63.62 63.62h768.76c35.089 0 63.62-28.548 63.62-63.62v-768.76c0-35.089-28.548-63.62-63.62-63.62h-768.76zM127.62 0v0h768.76c70.371 0 127.62 57.137 127.62 127.62v768.76c0 70.371-57.137 127.62-127.62 127.62h-768.76c-70.371 0-127.62-57.137-127.62-127.62v-768.76c0-70.371 57.137-127.62 127.62-127.62v0z",
					"M448 768v-480l-32 32c42.567 0 63.784 0.631 89.101 3.525 90.382 10.329 134.899 44.671 134.899 124.475s-44.516 114.146-134.899 124.475c-25.317 2.893-46.534 3.525-89.101 3.525h-32v192h64zM384 768h64v-160l-32 32c44.943 0 67.876-0.683 96.368-3.939 119.023-13.603 191.632-69.615 191.632-188.061s-72.609-174.459-191.632-188.061c-28.492-3.256-51.425-3.939-96.368-3.939h-32v512z"
				],
				"attrs": [
					{},
					{}
				],
				"isMulticolor": false,
				"grid": 0,
				"tags": [
					"parking"
				]
			},
			"attrs": [
				{},
				{}
			],
			"properties": {
				"order": 1,
				"id": 3,
				"prevSize": 32,
				"code": 58880,
				"name": "parking"
			},
			"setIdx": 0,
			"setId": 1,
			"iconIdx": 0
		},
		{
			"icon": {
				"paths": [
					"M361.447 958.78c2.65-2.65 7.441-7.586 14.067-14.642 10.94-11.651 23.103-25.090 36.185-40.154 37.33-42.986 74.647-90.48 109.518-141.203 80.915-117.694 136.451-234.537 154.906-345.266 4.325-25.95 6.543-51.361 6.543-76.182 0-206.128-143.542-341.333-341.333-341.333s-341.333 135.206-341.333 341.333c0 24.822 2.218 50.232 6.543 76.182 18.455 110.728 73.991 227.571 154.906 345.266 34.872 50.723 72.189 98.217 109.518 141.203 13.082 15.064 25.245 28.503 36.185 40.154 6.626 7.056 11.417 11.992 14.067 14.642l20.113 20.113 20.113-20.113zM321.22 918.553h40.227c-2.239-2.239-6.615-6.748-12.822-13.358-10.449-11.127-22.119-24.021-34.703-38.513-36.004-41.459-72.020-87.298-105.593-136.131-76.616-111.441-128.816-221.265-145.67-322.389-3.823-22.939-5.769-45.232-5.769-66.83 0-173.923 117.336-284.444 284.444-284.444s284.444 110.522 284.444 284.444c0 21.598-1.946 43.891-5.769 66.83-16.854 101.124-69.054 210.947-145.67 322.389-33.572 48.833-69.589 94.672-105.593 136.131-12.585 14.491-24.255 27.386-34.703 38.513-6.207 6.61-10.583 11.119-12.822 13.358v0z",
					"M341.333 483.556c94.257 0 170.667-76.41 170.667-170.667s-76.41-170.667-170.667-170.667c-94.257 0-170.667 76.41-170.667 170.667s76.41 170.667 170.667 170.667v0zM341.333 426.667c-62.838 0-113.778-50.94-113.778-113.778s50.94-113.778 113.778-113.778c62.838 0 113.778 50.94 113.778 113.778s-50.94 113.778-113.778 113.778v0z"
				],
				"attrs": [
					{},
					{}
				],
				"isMulticolor": false,
				"width": 683,
				"grid": 0,
				"tags": [
					"pin"
				]
			},
			"attrs": [
				{},
				{}
			],
			"properties": {
				"order": 2,
				"id": 2,
				"prevSize": 32,
				"code": 58881,
				"name": "pin"
			},
			"setIdx": 0,
			"setId": 1,
			"iconIdx": 1
		},
		{
			"icon": {
				"paths": [
					"M77.585 506.966l102.459 517.034 99.498-15.991-102.459-516.442z",
					"M423.459 470.839h101.275v524.733h-101.275v-524.733z",
					"M668.058 1008.602l99.498 15.398 102.459-517.034-99.498-15.398z",
					"M947.6 267.697h-100.682c0-58.040-47.38-105.42-105.42-105.42-21.913 0-43.234 7.107-61.594 20.136l-41.457 29.612-29.612-41.457c-31.389-43.234-81.73-69.293-135.033-69.293s-103.644 26.059-135.033 69.885l-29.612 40.865-40.865-29.612c-18.36-13.029-39.681-20.136-61.594-20.136-58.040 0-105.42 47.38-105.42 105.42h-101.275c0-113.712 92.391-206.695 206.695-206.695 27.836 0 54.487 5.33 79.954 16.583 49.157-49.157 116.673-77.585 187.151-77.585s137.994 28.428 187.743 77.585c24.874-10.66 52.118-16.583 79.954-16.583 113.712 0 206.103 92.983 206.103 206.695z"
				],
				"attrs": [
					{},
					{},
					{},
					{}
				],
				"isMulticolor": false,
				"width": 948,
				"grid": 0,
				"tags": [
					"steam"
				]
			},
			"attrs": [
				{},
				{},
				{},
				{}
			],
			"properties": {
				"order": 3,
				"id": 1,
				"prevSize": 32,
				"code": 58904,
				"name": "steam"
			},
			"setIdx": 0,
			"setId": 1,
			"iconIdx": 2
		},
		{
			"icon": {
				"paths": [
					"M896 832h-256v192h64v-160l-32 32h224v128h64v-384h-64v192zM128 896h224l-32-32v160h64v-192h-256v-192h-64v384h64v-128zM64 448c0-225.114 194.193-384 448-384s448 158.886 448 384l32-32h-960l32 32zM544 704v-224h480v-32c0-263.613-225.362-448-512-448s-512 184.387-512 448v32h480v224h-160v64h160v256h64v-256h160v-64h-160z"
				],
				"attrs": [
					{}
				],
				"isMulticolor": false,
				"grid": 0,
				"tags": [
					"veranda"
				]
			},
			"attrs": [
				{}
			],
			"properties": {
				"order": 4,
				"id": 0,
				"prevSize": 32,
				"code": 58905,
				"name": "veranda"
			},
			"setIdx": 0,
			"setId": 1,
			"iconIdx": 3
		},
		{
			"icon": {
				"paths": [
					"M995.556 85.333h-967.111v341.333h56.889v512h853.333v-512h56.889v-341.333zM881.778 881.778h-739.556v-455.111h739.556v455.111zM938.667 312.889h-853.333v-170.667h853.333v170.667z",
					"M711.111 711.111v-227.556h-398.222v227.556h398.222zM369.778 540.444h284.444v113.778h-284.444v-113.778z"
				],
				"attrs": [
					{},
					{}
				],
				"isMulticolor": false,
				"colorPermutations": {
					"6868681": [
						0,
						0
					]
				},
				"tags": [
					"icon-box"
				],
				"grid": 0
			},
			"attrs": [
				{},
				{}
			],
			"properties": {
				"order": 24,
				"id": 25,
				"prevSize": 32,
				"code": 58903,
				"name": "box"
			},
			"setIdx": 1,
			"setId": 0,
			"iconIdx": 0
		},
		{
			"icon": {
				"paths": [
					"M512 28.444c-266.638 0-483.556 216.917-483.556 483.556s216.917 483.556 483.556 483.556c266.638 0 483.556-216.917 483.556-483.556s-216.917-483.556-483.556-483.556zM512 938.667c-235.292 0-426.667-191.374-426.667-426.667 0-225.678 176.242-410.453 398.222-425.244v498.802l-172.715-172.715-40.22 40.22 241.38 241.38 241.323-241.38-40.22-40.22-172.658 172.715v-498.802c221.98 14.791 398.222 199.566 398.222 425.244 0 235.292-191.374 426.667-426.667 426.667z"
				],
				"attrs": [
					{}
				],
				"isMulticolor": false,
				"colorPermutations": {
					"6868681": [
						0
					]
				},
				"tags": [
					"icon-download"
				],
				"grid": 0
			},
			"attrs": [
				{}
			],
			"properties": {
				"order": 23,
				"id": 24,
				"name": "download",
				"prevSize": 32,
				"code": 58894
			},
			"setIdx": 1,
			"setId": 0,
			"iconIdx": 1
		},
		{
			"icon": {
				"paths": [
					"M2115.994 989.867h-1637.922c-45.943 0-107.452-21.504-143.155-50.108l-234.701-187.733c-37.615-30.174-66.082-89.293-66.082-137.626v-204.8c0-48.265 28.467-107.452 66.15-137.626l234.701-187.733c35.703-28.535 97.212-50.108 143.087-50.108h1637.922c56.593 0 102.673 45.875 102.673 102.332v751.138c0 56.388-46.080 102.263-102.673 102.263zM478.071 102.4c-30.106 0-77.073 16.452-100.489 35.226l-234.701 187.733c-21.572 17.271-40.482 56.593-40.482 84.241v204.8c0 27.648 18.91 66.97 40.482 84.241l234.701 187.733c23.415 18.773 70.383 35.226 100.489 35.226h1637.922c18.978 0 34.406-15.292 34.406-33.997v-751.138c0-18.773-15.428-34.065-34.406-34.065h-1637.922zM443.733 648.533c-75.298 0-136.533-61.235-136.533-136.533s61.235-136.533 136.533-136.533 136.533 61.235 136.533 136.533c0 75.298-61.235 136.533-136.533 136.533zM443.733 443.733c-37.615 0-68.267 30.652-68.267 68.267 0 37.683 30.652 68.267 68.267 68.267s68.267-30.583 68.267-68.267c0-37.615-30.652-68.267-68.267-68.267z",
					"M1094.178 342.426h-57.344v250.88l-156.74-250.88h-62.601v340.241h56.388v-250.402l158.652 250.402h61.645v-340.241zM1408.137 342.426h-245.146v340.241h248.013v-51.132h-188.757v-100.352h172.51v-48.265h-172.51v-90.317h185.89v-50.176zM1432.508 342.426l89.907 340.241h61.577l70.246-261.393 68.813 261.393h60.689l94.14-340.241h-60.689l-64.034 259.004-67.447-259.004h-60.689l-69.7 259.004-62.123-259.004h-60.689z"
				],
				"width": 2253,
				"attrs": [
					{},
					{}
				],
				"isMulticolor": false,
				"tags": [
					"icon-new"
				],
				"grid": 0
			},
			"attrs": [
				{},
				{}
			],
			"properties": {
				"order": 22,
				"id": 23,
				"name": "new",
				"prevSize": 32,
				"code": 58884
			},
			"setIdx": 1,
			"setId": 0,
			"iconIdx": 2
		},
		{
			"icon": {
				"paths": [
					"M672.5 96.376v-96.376l-250.854 144.566-251.92-144.566v95.28l-169.726-33.95v819.2l415.242 86.52h12.81l415.242-86.52v-819.2l-170.794 35.046zM64.048 141.278l325.576 67.902v685.586l-325.576-67.902v-685.586zM779.246 826.866l-325.576 67.902v-685.586l325.576-67.902v685.586z"
				],
				"width": 844,
				"attrs": [
					{}
				],
				"isMulticolor": false,
				"defaultCode": 58880,
				"grid": 0
			},
			"attrs": [
				{}
			],
			"properties": {
				"order": 1,
				"id": 11,
				"prevSize": 32,
				"code": 58891,
				"name": "simple-menu"
			},
			"setIdx": 1,
			"setId": 0,
			"iconIdx": 3
		},
		{
			"icon": {
				"paths": [
					"M575.52 248.030v-67.586c0-76.514-62.608-140.274-140.548-140.274-23 0-44.72 6.376-63.886 15.302-19.166-10.202-40.888-15.302-63.886-15.302-76.664 0-140.55 62.486-140.55 140.274v67.586h-123.938v716.672h647.802v-716.672h-114.996zM521.856 180.442v67.586h-75.384v-67.586c0-31.88-11.5-61.21-29.388-85.44 6.39-1.274 11.5-1.274 17.888-1.274 48.552 0 86.884 38.256 86.884 86.714v0zM348.086 180.442c0-22.954 8.944-43.356 23-58.66 14.056 15.302 23 35.706 23 58.66v67.586h-45.998v-67.586zM219.038 180.442c0-48.458 39.61-86.714 86.886-86.714 6.39 0 11.5 1.274 17.888 1.274-17.888 24.228-29.388 53.558-29.388 85.44v67.586h-75.384v-67.586zM95.1 301.588h149.492v612.106h-3.832l-70.276-70.136-70.276 70.136h-3.832v-612.106h-1.278zM638.13 912.418h-341.152v-610.828h341.152v610.828z"
				],
				"width": 746,
				"attrs": [
					{}
				],
				"isMulticolor": false,
				"defaultCode": 58881,
				"grid": 0
			},
			"attrs": [
				{}
			],
			"properties": {
				"order": 6,
				"id": 12,
				"prevSize": 32,
				"code": 58892,
				"name": "take-away"
			},
			"setIdx": 1,
			"setId": 0,
			"iconIdx": 4
		},
		{
			"icon": {
				"paths": [
					"M938.178 251.812c-31.386 13.69-65.086 22.938-100.434 27.096 36.086-21.32 63.804-55.040 76.872-95.222-33.782 19.712-71.198 34.038-111.032 41.76-31.876-33.444-77.352-54.354-127.652-54.354-112.866 0-195.85 103.68-170.332 211.332-145.326-7.178-274.176-75.694-360.406-179.836-45.824 77.374-23.758 178.576 54.108 229.796-28.662-0.89-55.634-8.632-79.206-21.524-1.906 79.728 56.166 154.276 140.248 170.906-24.616 6.616-51.57 8.12-78.972 3.010 22.252 68.342 86.844 118.088 163.358 119.47-73.524 56.73-166.134 82.022-258.888 71.29 77.394 48.824 169.298 77.342 268.062 77.342 324.658 0 508.068-269.938 497.040-511.99 34.13-24.27 63.754-54.58 87.236-89.078v0z"
				],
				"attrs": [
					{}
				],
				"isMulticolor": false,
				"defaultCode": 58882,
				"grid": 0
			},
			"attrs": [
				{}
			],
			"properties": {
				"order": 7,
				"id": 13,
				"prevSize": 32,
				"code": 58893,
				"name": "twitter"
			},
			"setIdx": 1,
			"setId": 0,
			"iconIdx": 5
		},
		{
			"icon": {
				"paths": [
					"M827.106 448.952h-71.312c5.202 20.174 8.254 41.248 8.254 63.016 0 139.224-112.856 252.078-252.048 252.078-139.202 0-252.048-112.856-252.048-252.078 0-21.77 3.072-42.854 8.274-63.016h-71.322v346.594c0 17.346 14.122 31.448 31.55 31.448h567.092c17.448 0 31.56-14.1 31.56-31.448v-346.594zM827.106 228.424c0-17.398-14.11-31.528-31.56-31.528h-94.504c-17.388 0-31.498 14.122-31.498 31.528v94.526c0 17.376 14.11 31.498 31.498 31.498h94.504c17.448 0 31.56-14.12 31.56-31.498v-94.526zM512 354.448c-87.020 0-157.552 70.534-157.552 157.522 0 87.030 70.534 157.522 157.552 157.522 87.010 0 157.542-70.502 157.542-157.522 0.010-86.988-70.534-157.522-157.542-157.522v0zM827.106 921.6h-630.2c-52.182 0-94.504-42.302-94.504-94.596v-630.098c0-52.204 42.322-94.504 94.504-94.504h630.2c52.204 0 94.496 42.3 94.496 94.504v630.098c0 52.296-42.292 94.596-94.496 94.596v0z"
				],
				"attrs": [
					{}
				],
				"isMulticolor": false,
				"defaultCode": 58886,
				"grid": 0
			},
			"attrs": [
				{}
			],
			"properties": {
				"order": 8,
				"id": 15,
				"prevSize": 32,
				"code": 58895,
				"name": "instagram"
			},
			"setIdx": 1,
			"setId": 0,
			"iconIdx": 6
		},
		{
			"icon": {
				"paths": [
					"M822.2 102.4h-620.38c-54.918 0-99.42 44.534-99.42 99.43v620.37c0 54.898 44.504 99.4 99.42 99.4h620.37c54.918 0 99.41-44.504 99.41-99.4v-620.37c0-54.898-44.494-99.43-99.4-99.43v0zM646.698 322.428h-63.6c-22.446 0-27.146 9.186-27.146 32.42v56.126h90.746l-8.704 98.52h-82.052v294.358h-117.514v-293.1h-61.122v-99.768h61.122v-78.582c0-73.728 39.424-112.25 126.874-112.25h81.398v102.276z"
				],
				"attrs": [
					{}
				],
				"isMulticolor": false,
				"defaultCode": 58888,
				"grid": 0
			},
			"attrs": [
				{}
			],
			"properties": {
				"order": 10,
				"id": 17,
				"prevSize": 32,
				"code": 58897,
				"name": "facebook"
			},
			"setIdx": 1,
			"setId": 0,
			"iconIdx": 7
		},
		{
			"icon": {
				"paths": [
					"M916.11 267.9c-0.042-0.032-0.102-0.042-0.102-0.082-4.126-4.136-9.842-6.706-16.158-6.706h-775.7c-6.308 0-12.022 2.57-16.138 6.706-0.032 0.030-0.082 0.040-0.112 0.082-5.008 4.956-7.086 11.612-6.45 18.084v454.236c0 6.246 2.57 11.9 6.738 15.974 0.010 0 0.032 0.062 0.032 0.062 0.736 0.726 1.556 1.3 2.364 1.904 0.316 0.246 0.584 0.502 0.912 0.748 4.218 2.846 9.156 4.106 14.048 3.82h772.804c0.472 0.030 0.952 0.164 1.394 0.164 5.796 0 11.612-2.212 16.056-6.626 0.030-0.030 0.030-0.062 0.102-0.124 4.096-4.044 6.676-9.656 6.676-15.914v-454.256c0.634-6.462-1.454-13.118-6.462-18.074v0zM877.128 686.182l-175.708-173.948 175.708-173.966v347.914zM146.852 338.268l175.748 173.966-175.748 173.948v-347.914zM512 636.17l-333.444-330.108h666.9l-333.454 330.108zM354.702 544.052l141.25 139.796c1.084 1.106 2.284 2.078 3.552 2.908 3.768 2.458 8.142 3.656 12.492 3.656 2.908 0 5.796-0.512 8.54-1.65 2.744-1.066 5.304-2.714 7.516-4.914l141.24-139.796 175.494 173.692h-665.58l175.492-173.692z"
				],
				"attrs": [
					{}
				],
				"isMulticolor": false,
				"defaultCode": 58889,
				"grid": 0
			},
			"attrs": [
				{}
			],
			"properties": {
				"order": 11,
				"id": 18,
				"prevSize": 32,
				"code": 58898,
				"name": "email"
			},
			"setIdx": 1,
			"setId": 0,
			"iconIdx": 8
		},
		{
			"icon": {
				"paths": [
					"M871.126 921.6l-359.128-360.438-359.128 360.438-50.472-50.658 359.128-360.438-356.146-357.448 50.462-50.658 356.156 357.448 356.148-357.448 50.482 50.656-356.156 357.448 359.126 360.438z"
				],
				"attrs": [
					{}
				],
				"isMulticolor": false,
				"defaultCode": 58892,
				"grid": 0
			},
			"attrs": [
				{}
			],
			"properties": {
				"order": 12,
				"id": 19,
				"prevSize": 32,
				"code": 58899,
				"name": "close"
			},
			"setIdx": 1,
			"setId": 0,
			"iconIdx": 9
		},
		{
			"icon": {
				"paths": [
					"M342.784 922.45l-35.584-35.472 341.7-374.98-341.7-375 35.584-35.452 374.016 410.45z"
				],
				"attrs": [
					{}
				],
				"isMulticolor": false,
				"defaultCode": 58894,
				"grid": 0
			},
			"attrs": [
				{}
			],
			"properties": {
				"order": 13,
				"id": 20,
				"prevSize": 32,
				"code": 58900,
				"name": "next"
			},
			"setIdx": 1,
			"setId": 0,
			"iconIdx": 10
		},
		{
			"icon": {
				"paths": [
					"M681.206 921.6l-374.006-409.59 374.006-409.61 35.594 35.38-341.71 374.23 341.71 374.19z"
				],
				"attrs": [
					{}
				],
				"isMulticolor": false,
				"defaultCode": 58895,
				"grid": 0
			},
			"attrs": [
				{}
			],
			"properties": {
				"order": 14,
				"id": 21,
				"prevSize": 32,
				"code": 58901,
				"name": "prev"
			},
			"setIdx": 1,
			"setId": 0,
			"iconIdx": 11
		},
		{
			"icon": {
				"paths": [
					"M838.972 457.338l-543.856-279.502c-15.524-7.966-30.606-11.818-44.718-12.4l-0.296-0.308-0.216 0.216c-44.544-1.596-78.356 31.314-78.356 85.38v545.536c0 53.678 32.974 86.476 76.74 85.616l0.040 0.042 0.040-0.042c14.664-0.318 30.526-4.384 46.776-12.74l543.846-279.47c65.782-33.864 65.782-98.52 0-132.332zM220.878 796.262v-545.536c0-18.862 5.682-30.668 15.708-35.318l308.1 307.22-309.432 308.532c-9.266-4.976-14.378-16.702-14.378-34.898zM576.644 554.486l76.524 76.318-315.822 162.294 239.298-238.612zM340.92 255.712l311.090 159.898-75.366 75.142-235.726-235.040zM815.914 547.144l-120.566 62.004-2.232-2.232-84.49-84.274 85.576-85.34 121.712 62.536c30.75 15.77 30.75 31.55 0 47.31z"
				],
				"attrs": [
					{}
				],
				"isMulticolor": false,
				"defaultCode": 58887,
				"grid": 0
			},
			"attrs": [
				{}
			],
			"properties": {
				"order": 9,
				"id": 16,
				"prevSize": 32,
				"code": 58896,
				"name": "google"
			},
			"setIdx": 1,
			"setId": 0,
			"iconIdx": 12
		},
		{
			"icon": {
				"paths": [
					"M391.282 888.966c-64.758 0-109.876-61.644-142.838-106.692-65.792-91.658-133.592-277.106-51.414-412.868 38.932-65.146 109.814-106.382 184.884-107.478 0.040 0 0.072 0 0.112 0 35.82 0 66.868 11.918 91.822 21.484 4.608 1.76 9.166 3.522 13.516 5.11l-1.404-10.454c-7.218-53.74 21.38-107.55 48.056-137.268 33.044-37.006 88.504-64.276 134.88-66.252l21.812-0.942 2.52 21.71c5.448 47.656-11.458 98.97-46.52 140.77-9.442 10.628-19.978 20.11-31.304 28.324 17.92-3.922 37.028-5.888 56.188-3.994 23.236 0.604 108.85 8.868 164.116 85.71l15.206 21.146-22.64 12.924c-7.884 4.486-75.98 45.63-75.254 125.758 0.922 98.806 88.36 131.718 92.12 133.1l19.62 7.096-4.536 20.438c-0.144 0.552-16.178 58.204-59.986 117.514-30.158 43.028-71.956 102.656-141.21 103.62-0.042 0-0.144 0-0.184 0-32.318 0-52.942-8.388-71.126-15.76-17.972-7.332-34.928-14.212-61.624-14.212-28.6 0-46.45 7.198-65.352 14.798-17.858 7.148-38.062 15.258-65.904 16.364l-3.552 0.062zM384.544 308.828c-60.888 0.87-116.572 33.342-147.302 84.736-62.402 103.118-21.218 263.034 49.204 361.196 33.596 45.876 67 87.254 104.836 87.254v23.46l1.854-23.5c19.62-0.736 33.75-6.42 50.116-13.014 21.176-8.48 45.19-18.144 82.862-18.144 35.86 0 58.91 9.35 79.268 17.654 16.998 6.922 30.424 12.37 50.36 12.37 44.586-0.644 73.278-36.854 106.424-84.152 23.736-32.174 38.36-63.876 45.966-83.036-38.268-21.084-101.15-73.564-102.020-167.26-0.686-77.66 46.326-127.478 76.082-151.154-41.892-42.444-96.338-47.534-113.572-48.004-5.222-0.48-8.754-0.644-12.278-0.644-29.102 0-58.48 11.13-84.378 20.94-21.402 8.11-39.894 15.104-56.442 15.104-18.31 0-37.826-7.486-58.5-15.422-22.466-8.622-47.932-18.38-72.478-18.38zM646.666 125.42c-28.324 7.67-58.746 25.476-77.682 46.684-17.356 19.342-33.464 49.060-36.658 78.366 28.1-4.588 57.744-21.268 78.88-45.056 20.254-24.156 32.626-52.388 35.462-79.994z"
				],
				"attrs": [
					{}
				],
				"isMulticolor": false,
				"defaultCode": 58896,
				"grid": 0
			},
			"attrs": [
				{}
			],
			"properties": {
				"order": 15,
				"id": 22,
				"prevSize": 32,
				"code": 58902,
				"name": "apple"
			},
			"setIdx": 1,
			"setId": 0,
			"iconIdx": 13
		},
		{
			"icon": {
				"paths": [
					"M270.046 423.192c-2.718-7.25-9.968-10.874-17.218-8.156l-63.434 21.75c-7.25 2.718-10.874 9.968-8.156 17.218s9.968 10.874 17.218 8.156l63.434-21.748c6.344-1.812 9.968-9.968 8.156-17.218v0zM946.068 118.712h-299.044l-37.154-107.836c-2.72-7.25-9.968-10.874-17.218-8.156l-579.966 197.55c-7.25 2.72-10.874 9.968-8.156 17.218l268.234 789.296c2.718 7.25 9.968 10.874 17.218 8.156l103.306-35.342h394.194c1.812 0 3.626 0 4.53-0.906v0c1.812-0.906 2.72-1.812 4.53-2.72v0l158.584-156.772c0.906-0.906 2.72-2.72 2.72-4.53v0c0.906-1.812 0.906-3.626 0.906-4.53v0-677.834c0.906-7.25-5.438-13.592-12.688-13.592v0zM618.024 118.712h-282.734l253.736-86.088 28.998 86.088zM34.436 221.112l289.076-98.774c-2.718 2.72-3.626 5.438-3.626 9.968v108.744l-119.618 40.778c-11.782 3.626-18.124 17.218-14.498 28.998s17.218 18.124 28.998 14.5l105.118-36.248v205.706l-99.68 33.528c-7.25 2.72-10.874 9.968-8.156 17.218s9.968 10.874 17.218 8.156l90.618-30.812v73.402l-67.966 23.562c-7.25 2.72-10.874 9.968-8.156 17.218s9.968 10.874 17.218 8.156l59.81-19.936v73.402l-37.154 12.688c-7.25 2.72-10.874 9.968-8.156 17.218s9.968 10.874 17.218 8.156l28.092-9.968v238.33c0 3.626 0.906 6.342 3.626 9.062l-28.092 9.968-261.89-763.016zM801.076 934.288v-110.556h111.462l-111.462 110.556zM932.474 796.544h-144.99c-7.25 0-13.592 6.342-13.592 13.592v143.178h-426.818v-806.514h585.402v649.742zM483.908 302.668h311.73c12.688 0 22.654-9.968 22.654-22.654s-9.968-22.654-22.654-22.654h-311.73c-12.688 0-22.654 9.968-22.654 22.654s9.968 22.654 22.654 22.654v0zM580.87 413.226c0 7.25 6.342 13.592 13.592 13.592h261.89c7.25 0 13.592-6.342 13.592-13.592s-6.342-13.592-13.592-13.592h-261.89c-8.156 0-13.592 6.342-13.592 13.592v0zM424.098 426.818h67.058c7.25 0 13.594-6.344 13.594-13.594s-6.344-13.592-13.594-13.592h-67.058c-7.25 0-13.594 6.342-13.594 13.592s5.438 13.594 13.594 13.594v0zM855.448 496.596h-145.898c-7.25 0-13.592 6.344-13.592 13.594s6.342 13.594 13.592 13.594h145.896c7.25 0 13.592-6.342 13.592-13.594s-5.438-13.594-13.592-13.594v0zM424.098 523.78h183.050c7.25 0 13.592-6.342 13.592-13.594s-6.342-13.594-13.592-13.594h-183.050c-7.25 0-13.594 6.344-13.594 13.594s5.438 13.594 13.594 13.594v0zM855.448 593.558h-251.922c-7.25 0-13.592 6.342-13.592 13.592s6.342 13.592 13.592 13.592h251.922c7.25 0 13.592-6.342 13.592-13.592s-5.438-13.592-13.592-13.592v0zM424.098 620.744h77.026c7.25 0 13.592-6.342 13.592-13.592s-6.344-13.592-13.594-13.592h-77.026c-7.25 0-13.594 6.342-13.594 13.592s5.438 13.592 13.594 13.592v0zM855.448 690.52h-81.558c-7.25 0-13.592 6.342-13.592 13.592s6.342 13.592 13.592 13.592h81.558c7.25 0 13.592-6.342 13.592-13.592s-5.438-13.592-13.592-13.592v0zM424.098 717.706h249.204c7.25 0 13.592-6.342 13.592-13.592s-6.342-13.592-13.592-13.592h-249.204c-7.25 0-13.594 6.342-13.594 13.592s5.438 13.592 13.594 13.592v0zM550.966 782.046l-77.932 81.558-40.778-34.434c-5.438-4.53-14.5-3.626-19.030 1.812s-3.626 14.5 1.812 19.030l50.748 42.592c2.718 1.812 5.438 2.72 9.062 2.72s7.25-1.812 9.968-4.53l86.088-90.62c5.438-5.438 4.53-13.592-0.906-19.030-5.438-4.53-13.592-4.53-19.030 0.906v0z"
				],
				"width": 962,
				"attrs": [
					{}
				],
				"isMulticolor": false,
				"defaultCode": 58882,
				"grid": 0
			},
			"attrs": [
				{}
			],
			"properties": {
				"id": 2,
				"order": 18,
				"prevSize": 32,
				"code": 58882,
				"name": "form"
			},
			"setIdx": 1,
			"setId": 0,
			"iconIdx": 16
		},
		{
			"icon": {
				"paths": [
					"M1374.522 1012.184h-1348.268c-10.504 0-19.692-9.19-19.692-19.692v-967.548c0-10.504 9.19-19.692 19.692-19.692h1348.268c10.502 0 19.692 9.19 19.692 19.692v967.548c0 10.504-9.19 19.692-19.692 19.692v0zM45.948 972.8h1308.882v-928.164h-1308.882v928.164zM1135.59 1004.308h-871.712v-85.332c0-105.026 97.15-118.154 182.482-129.968 89.272-11.816 143.096-23.63 143.096-84.020 0-36.76-17.068-63.014-36.76-93.21-26.256-39.384-59.076-87.96-59.076-178.544 0-181.168 69.578-273.068 207.426-274.38 137.846 1.312 207.426 93.21 207.426 274.38 0 90.586-32.822 139.158-59.076 178.544-19.692 30.196-36.76 55.138-36.76 93.21 0 60.39 53.826 72.206 143.096 84.020 85.334 11.816 182.482 24.944 182.482 129.97v85.332h-2.626zM290.132 978.052h820.512v-59.076c0-76.144-63.016-90.586-160.164-103.712-77.456-10.504-165.414-22.318-165.414-110.278 0-45.948 19.692-76.144 42.010-107.65 26.256-38.072 55.138-81.394 55.138-164.104 0-165.414-59.076-246.81-181.168-248.122-123.404 1.312-182.482 82.708-182.482 248.122 0 82.708 28.882 126.032 55.138 164.104 21.004 31.508 42.010 61.702 42.010 107.65 0 86.646-87.958 99.774-165.414 110.278-95.836 13.128-160.164 27.568-160.164 103.712v59.076zM1031.876 265.19c18.852 0 34.134-15.282 34.134-34.134s-15.282-34.134-34.134-34.134c-18.85 0-34.134 15.282-34.134 34.134s15.282 34.134 34.134 34.134zM1110.646 232.37c7.876-1.312 14.442-6.564 14.442-14.442 0-11.814-7.876-18.38-19.692-18.38h-14.442c-3.938 0-6.564 2.626-6.564 6.564v43.322c0 3.938 2.626 6.564 5.25 6.564s5.25-2.626 5.25-6.564v-17.068l17.068 21.004c1.314 1.312 2.626 2.626 3.938 2.626 3.938 0 5.25-2.626 5.25-6.564 0-1.312 0-2.626-1.314-3.938l-9.19-13.128zM1097.518 224.492v-14.442h7.876c3.938 0 7.876 2.626 7.876 6.564s-2.626 6.564-7.876 6.564h-7.876v1.312zM1157.908 244.184h-14.442v-11.814h13.128c3.938 0 5.25-2.626 5.25-5.25s-1.314-5.252-5.25-5.252h-13.128v-11.814h14.442c3.938 0 5.25-2.626 5.25-5.25s-1.314-5.252-5.25-5.252h-19.692c-3.938 0-6.564 2.626-6.564 6.564v43.322c0 3.938 2.626 5.25 6.564 5.25h19.692c3.938 0 5.25-2.626 5.25-5.25s-1.314-5.25-5.25-5.25zM1206.482 241.558c-2.626 0-5.25 3.938-13.128 3.938-9.19 0-14.442-7.876-14.442-17.068s5.25-18.38 14.442-18.38c6.564 0 9.19 2.626 11.816 2.626s5.25-2.626 5.25-5.252c0-6.564-11.816-9.19-17.068-9.19-15.754 0-27.568 13.128-27.568 28.882s10.502 28.882 27.568 28.882c5.25 0 17.068-1.312 17.068-9.19 1.314-1.312 0-5.25-3.938-5.25zM1278.686 338.708c-3.938 0-6.564-2.626-6.564-6.564v-203.486h-203.488c-3.938 0-6.564-2.626-6.564-6.564s2.626-6.564 6.564-6.564h210.050c3.938 0 6.564 2.626 6.564 6.564v210.050c0 3.938-2.626 6.564-6.564 6.564zM120.778 338.708c-3.938 0-6.564-2.626-6.564-6.564v-210.050c0-3.938 2.626-6.564 6.564-6.564h210.050c3.938 0 6.564 2.626 6.564 6.564s-2.626 6.564-6.564 6.564h-203.486v203.486c0 3.938-2.626 6.564-6.564 6.564zM1278.686 901.908h-210.050c-3.938 0-6.564-2.626-6.564-6.564s2.626-6.564 6.564-6.564h203.488v-203.486c0-3.938 2.626-6.564 6.564-6.564s6.564 2.626 6.564 6.564v210.050c0 3.938-2.626 6.564-6.564 6.564zM332.144 901.908h-210.050c-3.938 0-6.564-2.626-6.564-6.564v-210.050c0-3.938 2.626-6.564 6.564-6.564s6.564 2.626 6.564 6.564v203.486h203.486c3.938 0 6.564 2.626 6.564 6.564s-3.938 6.564-6.564 6.564z"
				],
				"width": 1406,
				"attrs": [
					{}
				],
				"isMulticolor": false,
				"defaultCode": 58883,
				"grid": 0
			},
			"attrs": [
				{}
			],
			"properties": {
				"id": 3,
				"order": 19,
				"prevSize": 32,
				"code": 58883,
				"name": "video"
			},
			"setIdx": 1,
			"setId": 0,
			"iconIdx": 17
		},
		{
			"icon": {
				"paths": [
					"M246.82 301.6c-6.020 0-4.214 86.086-10.836 86.086-6.020 0-3.010-86.086-12.642-86.086s-6.020 86.086-12.642 86.086-4.816-86.086-10.836-86.086c-6.020 0-13.846 108.962-4.214 118.594s15.652 57.792 15.652 102.34-11.438 87.892-11.438 151.704c0 63.812 46.354 63.812 46.354 0s-11.438-107.156-11.438-151.704 6.020-92.708 15.652-102.34c10.234-9.632 2.408-118.594-3.612-118.594zM818.718 303.406c0-12.642-49.966 8.428-49.966 118.594 0 71.036 15.652 57.792 15.652 102.34s-11.438 87.892-11.438 151.704 46.354 63.812 46.354 0-11.438-107.156-11.438-151.704 10.836-209.496 10.836-220.934zM503.872 275.114c-132.44 0-240.8 107.758-240.8 240.8s107.758 240.8 240.8 240.8 240.8-107.758 240.8-240.8-108.36-240.8-240.8-240.8zM503.872 732.634c-119.196 0-216.72-96.922-216.72-216.72s96.922-216.72 216.72-216.72 216.72 96.922 216.72 216.72-97.524 216.72-216.72 216.72zM503.872 347.954c-92.708 0-167.958 75.25-167.958 167.958s75.25 167.958 167.958 167.958 167.958-75.25 167.958-167.958-75.25-167.958-167.958-167.958zM503.872 660.394c-79.464 0-143.878-64.414-143.878-143.878s64.414-143.878 143.878-143.878 143.878 64.414 143.878 143.878-64.414 143.878-143.878 143.878zM503.872 623.672c-59.598 0-107.758-48.16-107.758-107.758 0-6.622-5.418-12.040-12.040-12.040s-12.040 5.418-12.040 12.040c0 72.842 58.996 131.838 131.838 131.838 6.622 0 12.040-5.418 12.040-12.040s-5.418-12.040-12.040-12.040z"
				],
				"attrs": [
					{}
				],
				"isMulticolor": false,
				"defaultCode": 58885,
				"grid": 0
			},
			"attrs": [
				{}
			],
			"properties": {
				"id": 5,
				"order": 20,
				"prevSize": 32,
				"code": 58885,
				"name": "coffeemania"
			},
			"setIdx": 1,
			"setId": 0,
			"iconIdx": 18
		},
		{
			"icon": {
				"paths": [
					"M739.254 277.52c-3.010-2.408-6.622-3.010-10.234-2.408l-81.27 16.254v-29.498c0-4.214-2.408-8.428-6.020-10.234-3.612-2.408-8.428-2.408-12.040 0l-117.992 65.618-117.39-65.618c-3.612-1.806-8.428-1.806-12.040 0-3.612 2.408-6.020 6.020-6.020 10.234v29.498l-81.27-16.254c-3.612-0.602-7.224 0-10.234 2.408s-4.214 5.418-4.214 9.030v413.574c0 6.020 4.214 10.836 9.632 12.040l219.73 44.548c0 0 0 0 0 0 0.602 0 1.204 0 2.408 0 0 0 0 0 0 0s0 0 0 0c0.602 0 1.806 0 2.408 0 0 0 0 0 0 0l219.73-44.548c5.418-1.204 9.632-6.020 9.632-12.040v-413.572c-0.602-3.612-2.408-6.622-4.816-9.030zM623.672 296.182l-38.528 7.826 38.528-21.672v13.846zM400.33 282.336l38.528 21.672-38.528-7.826v-13.846zM304.61 301.6l195.048 39.13v388.892l-195.65-39.732v-388.288zM719.39 690.494l-195.65 39.732v-389.494l195.65-39.732v389.492zM577.918 510.496c0.602 0 1.806 0 2.408 0l87.892-18.060c6.622-1.204 10.836-7.826 9.632-14.448s-7.826-10.836-14.448-9.632l-87.892 18.060c-6.622 1.204-10.836 7.826-9.632 14.448 1.204 5.418 6.020 9.632 12.040 9.632zM560.462 556.246c0.602 0 1.806 0 2.408 0l122.808-24.682c6.622-1.204 10.836-7.826 9.632-14.448s-7.826-10.836-14.448-9.632l-122.808 24.682c-6.622 1.204-10.836 7.826-9.632 14.448 1.204 5.418 6.020 9.632 12.040 9.632z"
				],
				"attrs": [
					{}
				],
				"isMulticolor": false,
				"defaultCode": 58886,
				"grid": 0
			},
			"attrs": [
				{}
			],
			"properties": {
				"id": 6,
				"order": 21,
				"prevSize": 32,
				"code": 58886,
				"name": "menu"
			},
			"setIdx": 1,
			"setId": 0,
			"iconIdx": 19
		},
		{
			"icon": {
				"paths": [
					"M391.298 597.784c-6.622 0-12.040 5.418-12.040 12.040v55.986c0 6.622 5.418 12.040 12.040 12.040s12.040-5.418 12.040-12.040v-55.986c0-6.622-5.418-12.040-12.040-12.040zM511.7 611.63c-6.622 0-12.040 5.418-12.040 12.040v121.002c0 6.622 5.418 12.040 12.040 12.040s12.040-5.418 12.040-12.040v-121.002c0-6.622-5.418-12.040-12.040-12.040zM632.1 597.784c-6.622 0-12.040 5.418-12.040 12.040v55.986c0 6.622 5.418 12.040 12.040 12.040s12.040-5.418 12.040-12.040v-55.986c0-6.622-5.418-12.040-12.040-12.040zM793.434 492.436h-31.906c-6.020-130.634-112.574-234.78-243.81-238.392 19.264-3.010 34.314-19.866 34.314-40.334 0-22.876-18.662-40.936-40.936-40.936-22.876 0-40.936 18.662-40.936 40.936 0 20.468 15.050 37.324 34.314 40.334-131.236 3.612-237.188 107.758-243.81 238.392h-30.702c-16.254 0-30.1 13.244-30.1 30.1s13.244 30.1 30.1 30.1h562.87c16.254 0 30.1-13.244 30.1-30.1s-13.244-30.1-29.498-30.1zM494.24 213.71c0-9.632 7.826-16.856 16.856-16.856s16.856 7.826 16.856 16.856-7.826 16.856-16.856 16.856-16.856-7.826-16.856-16.856zM511.096 278.124c121.002 0 219.73 95.116 225.75 214.312h-451.5c6.020-119.196 105.35-214.312 225.75-214.312zM793.434 527.952h-562.87c-3.010 0-6.020-2.408-6.020-6.020s2.408-6.020 6.020-6.020h562.268c3.010 0 6.020 2.408 6.020 6.020s-2.408 6.020-5.418 6.020zM510.496 281.736c-106.554 0-193.242 86.688-193.242 193.242 0 6.622 5.418 12.040 12.040 12.040s12.040-5.418 12.040-12.040c0-93.31 75.852-169.162 169.162-169.162 6.622 0 12.040-5.418 12.040-12.040s-5.418-12.040-12.040-12.040z"
				],
				"attrs": [
					{}
				],
				"isMulticolor": false,
				"defaultCode": 58887,
				"grid": 0
			},
			"attrs": [
				{}
			],
			"properties": {
				"id": 7,
				"order": 2,
				"prevSize": 32,
				"code": 58887,
				"name": "delivery"
			},
			"setIdx": 1,
			"setId": 0,
			"iconIdx": 20
		},
		{
			"icon": {
				"paths": [
					"M710.36 276.918c-3.612-2.408-7.826-2.408-11.438-1.204l-105.952 42.742-105.952-42.742c-1.806-0.602-3.612-1.204-5.418-0.602 0 0 0 0 0 0s0 0 0 0c-1.806 0-3.612 0-5.418 0.602l-105.952 42.742-105.952-42.742c-3.612-1.204-7.826-1.204-11.438 1.204s-5.418 6.020-5.418 10.234v413.572c0 4.816 3.010 9.030 7.826 11.438l110.166 44.548c0 0 0.602 0 0.602 0s0.602 0 0.602 0c1.204 0 1.806 0.602 3.010 0.602 0 0 0 0 0 0s0 0 0 0c1.204 0 1.806 0 3.010-0.602 0 0 0.602 0 0.602 0s0.602 0 0.602 0l107.156-43.344 107.156 43.344c0 0 0.602 0 0.602 0s0.602 0 0.602 0c1.204 0 1.806 0.602 3.010 0.602v0c0 0 0 0 0 0 1.204 0 1.806 0 3.010-0.602 0 0 0.602 0 0.602 0s0.602 0 0.602 0l110.166-44.548c4.816-1.806 7.826-6.020 7.826-11.438v-414.174c1.204-4.214-0.602-7.826-4.214-9.632zM358.79 726.614l-86.086-34.314v-387.688l86.086 34.916v387.086zM691.698 692.298l-86.086 34.916v-206.486c-4.816 9.030-10.836 16.254-16.856 24.080-2.408 3.010-4.816 6.020-7.224 9.632v172.774l-86.086-34.916v-137.858c-2.408-3.010-4.816-6.622-7.224-9.632-6.622-9.030-13.846-18.060-19.264-28.294v175.784l-86.086 34.916v-387.688l86.086-34.916v138.46c6.020-12.040 15.050-22.274 26.488-30.1v-108.36l86.086 34.916v73.444c9.632 6.622 18.060 15.652 24.080 25.886v-99.33l86.086-34.916v387.688zM538.788 414.174c-34.916 0-63.21 28.896-63.21 64.414 0 52.976 49.966 58.394 63.21 139.062 13.244-80.066 63.21-86.086 63.21-138.46 0-36.12-28.294-65.016-63.21-65.016zM538.788 499.058c-12.642 0-22.876-10.234-22.876-22.876s10.234-22.876 22.876-22.876c12.642 0 22.876 10.234 22.876 22.876s-10.234 22.876-22.876 22.876z"
				],
				"attrs": [
					{}
				],
				"isMulticolor": false,
				"defaultCode": 58888,
				"grid": 0
			},
			"attrs": [
				{}
			],
			"properties": {
				"id": 8,
				"order": 3,
				"prevSize": 32,
				"code": 58888,
				"name": "address"
			},
			"setIdx": 1,
			"setId": 0,
			"iconIdx": 21
		},
		{
			"icon": {
				"paths": [
					"M756.712 545.41h-51.17v-154.112c0-6.622-5.418-12.040-12.040-12.040h-154.112c5.418-6.020 9.030-14.448 9.030-23.478 0-15.050-9.632-28.294-23.478-33.11v-9.632l37.926-28.294c11.438-9.030 18.662-22.876 18.662-37.324v-30.702c0 0 0 0 0-0.602s0-0.602 0-1.204 0-0.602 0-1.204 0-0.602-0.602-1.204c0-0.602 0-0.602-0.602-1.204 0-0.602-0.602-0.602-0.602-1.204s-0.602-0.602-0.602-1.204c0 0 0 0 0 0s-0.602-0.602-0.602-0.602c0-0.602-0.602-0.602-0.602-1.204 0 0-0.602-0.602-0.602-0.602-0.602 0-0.602-0.602-1.204-0.602s-0.602-0.602-1.204-0.602c-0.602 0-0.602-0.602-1.204-0.602s-0.602 0-1.204-0.602c-0.602 0-0.602 0-1.204 0s-0.602 0-1.204 0c0 0-0.602 0-0.602 0s0 0 0 0c-0.602 0-1.204 0-1.204 0-0.602 0-0.602 0-1.204 0s-0.602 0-1.204 0.602c-0.602 0-0.602 0-1.204 0.602-0.602 0-0.602 0.602-1.204 0.602s-0.602 0.602-1.204 0.602c0 0 0 0 0 0l-42.742 31.906c-11.438 9.030-18.662 22.876-18.662 37.324v46.354c-13.846 4.816-23.478 18.060-23.478 33.11 0 9.030 3.612 17.458 9.030 23.478h-156.52c-6.622 0-12.040 5.418-12.040 12.040v154.714h-51.17c-6.622 0-12.040 5.418-12.040 12.040v187.222c0 6.622 5.418 12.040 12.040 12.040h490.026c6.622 0 12.040-5.418 12.040-12.040v-187.222c0-6.622-5.418-12.040-12.040-12.040zM513.504 343.74c6.020 0 11.438 4.816 11.438 11.438 0 6.020-4.816 11.438-11.438 11.438s-11.438-4.816-11.438-11.438c0-6.020 4.816-11.438 11.438-11.438zM534.576 258.258l23.478-17.458v6.020c0 7.224-3.612 13.846-9.030 18.662l-23.478 17.458v-6.622c0-7.224 3.010-13.846 9.030-18.060zM681.462 403.338v22.876c-15.050 6.622-22.876 24.080-29.498 39.13-5.418 12.642-12.040 27.090-19.264 27.090s-13.846-14.448-19.264-27.090c-8.428-18.662-18.060-41.538-41.538-41.538-22.876 0-33.11 22.876-41.538 41.538-5.418 12.642-12.040 27.090-19.264 27.090s-13.846-14.448-19.264-27.090c-8.428-18.662-18.060-41.538-41.538-41.538-22.876 0-33.11 22.876-41.538 41.538-5.418 12.642-12.040 27.090-19.264 27.090s-13.846-14.448-19.264-27.090c-6.622-15.050-14.448-32.508-29.498-39.13v-22.876h340.73zM342.536 459.324c2.408 4.816 4.816 10.234 7.224 15.050 8.428 18.662 18.060 41.538 41.538 41.538 22.876 0 33.11-22.876 41.538-41.538 5.418-12.642 12.040-27.090 19.264-27.090s13.846 14.448 19.264 27.090c8.428 18.662 18.060 41.538 41.538 41.538 22.876 0 33.11-22.876 41.538-41.538 5.418-12.642 12.040-27.090 19.264-27.090s13.846 14.448 19.264 27.090c8.428 18.662 18.060 41.538 41.538 41.538s33.11-22.876 41.538-41.538c2.408-5.418 4.816-10.234 7.224-15.050v86.086h-340.73v-86.086zM330.498 569.49h414.176v23.478c-19.866 6.622-30.1 28.294-39.732 47.558-10.234 21.672-18.060 36.12-30.1 36.12s-19.866-14.448-30.1-36.12c-10.836-23.478-23.478-49.364-51.772-49.364-27.692 0-40.334 26.488-51.772 49.364-10.234 21.672-18.060 35.518-30.1 35.518s-19.866-14.448-30.1-36.12c-10.836-23.478-23.478-49.364-51.772-49.364-27.692 0-40.334 26.488-51.772 49.364-10.234 21.672-18.060 36.12-30.1 36.12s-19.866-14.448-30.1-35.518c-9.632-19.866-19.866-41.538-39.732-47.558v-23.478h52.976zM279.326 732.634v-111.972c6.020 6.020 11.438 16.856 18.060 30.1 10.836 23.478 23.478 49.364 51.772 49.364 27.692 0 40.334-26.488 51.772-49.364 10.234-21.672 18.060-36.12 30.1-36.12s19.866 14.448 30.1 36.12c10.836 23.478 23.478 49.364 51.772 49.364 27.692 0 40.334-26.488 51.772-49.364 10.234-21.672 18.060-36.12 30.1-36.12s19.866 14.448 30.1 36.12c10.836 23.478 23.478 49.364 51.772 49.364s40.334-26.488 51.772-49.364c6.622-13.244 12.040-24.080 18.060-30.1v111.972h-467.152z"
				],
				"attrs": [
					{}
				],
				"isMulticolor": false,
				"defaultCode": 58889,
				"grid": 0
			},
			"attrs": [
				{}
			],
			"properties": {
				"id": 9,
				"order": 4,
				"prevSize": 32,
				"code": 58889,
				"name": "cake"
			},
			"setIdx": 1,
			"setId": 0,
			"iconIdx": 22
		},
		{
			"icon": {
				"paths": [
					"M532.77 476.784c-4.816 4.816-4.816 12.040 0 16.856s12.040 4.816 16.856 0c9.030-9.030 21.070-13.846 33.712-13.846 13.244 0 25.284 4.816 34.314 14.448 2.408 2.408 5.418 3.612 8.428 3.612s6.020-1.204 8.428-3.612c4.816-4.816 4.816-12.040 0-16.856-13.846-13.846-31.906-21.672-51.17-21.672-19.264 0.602-37.324 7.826-50.568 21.070zM755.51 656.178c-0.602-14.448-7.224-28.294-18.662-39.13 0 0-0.602-0.602-0.602-0.602l-52.976-41.538c19.264-40.936 12.040-90.902-21.070-124.614-7.224-7.224-15.050-13.244-23.478-18.662-2.408-69.832-26.488-151.102-127.022-152.306-104.748 1.204-126.42 90.3-126.42 164.346 0 53.578 19.866 83.076 34.916 105.35 10.234 15.652 18.662 28.294 18.662 45.15 0 20.468-13.244 27.090-69.23 34.916-46.956 6.622-110.768 15.652-110.768 83.678v58.996h508.086v-58.996c0-16.856-4.214-31.304-12.040-42.742 0.602-4.816 1.204-9.030 0.602-13.846zM731.428 656.78c0 4.214-0.602 9.632-5.418 14.448s-10.234 5.418-14.448 5.418c-7.826 0-15.652-4.214-21.070-10.234l-39.732-50.568c3.612-2.408 6.622-5.418 10.234-8.428 3.612-3.612 7.224-7.826 10.234-12.040l50.568 39.732c6.020 6.020 9.632 13.846 9.632 21.672zM643.538 590.562c-16.254 16.254-37.926 24.682-60.802 24.682v0c-23.478 0-45.752-9.030-62.006-26.488-16.254-16.856-25.284-38.528-24.682-62.006 0-23.478 9.632-45.15 26.488-61.404 16.254-16.254 37.926-24.682 60.802-24.682 23.478 0 45.752 9.030 62.006 26.488 33.712 34.314 32.508 89.698-1.806 123.41zM742.264 747.682h-460.528v-34.916c0-43.946 35.518-52.374 90.902-60.2 43.946-6.020 89.698-12.040 89.698-58.394 0-24.080-10.836-40.334-22.274-58.394l-0.602-0.602c-14.448-21.070-30.1-45.752-30.1-91.504 0-93.31 33.712-139.062 102.942-139.664 63.812 0.602 96.922 39.13 102.34 117.39-10.234-3.010-20.468-4.214-31.304-4.214-29.498 0-56.588 11.438-77.658 31.906s-33.11 48.762-33.712 78.26c-0.602 29.498 10.836 57.792 31.906 78.862 21.070 21.672 49.364 33.712 79.464 33.712 0 0 0 0 0 0 16.254 0 32.508-3.612 46.956-10.234l41.538 52.976c0 0 0.602 0.602 0.602 0.602 10.234 11.438 24.682 18.060 39.13 18.662 0.602 0 0.602 0 1.204 0 9.632 0 18.662-3.010 26.488-8.428 2.408 6.020 3.612 12.642 3.612 20.468v33.712z"
				],
				"attrs": [
					{}
				],
				"isMulticolor": false,
				"defaultCode": 58890,
				"grid": 0
			},
			"attrs": [
				{}
			],
			"properties": {
				"id": 10,
				"order": 5,
				"prevSize": 32,
				"code": 58890,
				"name": "job"
			},
			"setIdx": 1,
			"setId": 0,
			"iconIdx": 23
		}
	],
	"height": 1024,
	"metadata": {
		"name": "icomoon"
	},
	"preferences": {
		"showGlyphs": true,
		"showQuickUse": true,
		"showQuickUse2": true,
		"showSVGs": true,
		"fontPref": {
			"prefix": "icon-",
			"metadata": {
				"fontFamily": "icomoon",
				"majorVersion": 1,
				"minorVersion": 0
			},
			"metrics": {
				"emSize": 1024,
				"baseline": 6.25,
				"whitespace": 50
			},
			"showSelector": false,
			"showMetrics": false
		},
		"imagePref": {
			"prefix": "icon-",
			"png": true,
			"useClassSelector": true,
			"color": 4473924,
			"bgColor": 16777215
		},
		"historySize": 100
	}
}