<?xml version="1.0" encoding="utf-8"?>
<!-- Generator: Adobe Illustrator 16.0.0, SVG Export Plug-In . SVG Version: 6.00 Build 0)  -->
<!DOCTYPE svg PUBLIC "-//W3C//DTD SVG 1.1//EN" "http://www.w3.org/Graphics/SVG/1.1/DTD/svg11.dtd">
<svg version="1.1" id="Layer_1" xmlns="http://www.w3.org/2000/svg" xmlns:xlink="http://www.w3.org/1999/xlink" x="0px" y="0px"
	 width="90px" height="25px" viewBox="0 0 90 25" enable-background="new 0 0 90 25" xml:space="preserve">
<g>
	<rect x="0.615" y="15.661" fill="#775647" width="88.77" height="0.543"/>
	<g>
		<g>
			<path fill="#775647" d="M7.299,12.828H5.713v-2.765h1.473c0.726,0,0.974-0.588,0.974-1.064V8.75h0.25
				c0.679,0,1.586-0.657,1.971-1.246l0.25-0.408l0.181,0.453c0.182,0.408,0.25,0.861,0.25,1.337
				C11.061,10.812,9.541,12.828,7.299,12.828L7.299,12.828z M4.965,12.828H2.2V0.979h2.765V12.828L4.965,12.828z M7.299,8.297H5.713
				V5.532h1.586c0.385,0,0.815-0.476,0.815-0.906c0-0.452-0.453-0.906-0.815-0.906H5.713V0.956l1.586,0.045
				c1.926,0,3.58,1.654,3.58,3.625C10.856,6.598,9.225,8.297,7.299,8.297L7.299,8.297z"/>
		</g>
		<g>
			<path fill="#775647" d="M24.088,12.828h-3.104l-0.997-1.926h-3.715l1.404-2.764h0.974l-2.446-4.69l1.586-3.036L24.088,12.828
				L24.088,12.828z M14.503,12.828h-3.059l4.419-8.609l1.54,3.036L14.503,12.828L14.503,12.828z"/>
		</g>
		<g>
			<path fill="#775647" d="M34.033,12.828h-3.103l-1.655-3.987h0.386c0.747,0,1.586-0.204,2.063-0.544l0.248-0.182L34.033,12.828
				L34.033,12.828z M27.69,12.828h-2.765V0.979h2.765V12.828L27.69,12.828z M30.001,8.297h-1.586V5.532h1.586
				c0.385,0,0.861-0.476,0.861-0.906c0-0.452-0.454-0.906-0.816-0.906h-1.608V0.956h1.586c1.971,0,3.58,1.654,3.58,3.647
				C33.581,6.598,31.928,8.297,30.001,8.297L30.001,8.297z"/>
		</g>
		<g>
			<path fill="#775647" d="M46.404,12.828h-2.764V6.529l-2.991,2.696l-5.754-5.143V0.39l5.754,5.143l5.755-5.143V12.828
				L46.404,12.828z M37.659,12.828h-2.764V5.034l2.764,2.447V12.828L37.659,12.828z"/>
		</g>
		<g>
			<path fill="#775647" d="M59.953,12.828h-3.08l-0.998-1.926h-3.717l1.406-2.764h0.975l-2.447-4.69l1.586-3.036L59.953,12.828
				L59.953,12.828z M50.369,12.828h-3.059l4.418-8.61l1.541,3.037L50.369,12.828L50.369,12.828z"/>
		</g>
		<g>
			<path fill="#775647" d="M67.906,12.828h-3.58v-2.765h3.58V12.828L67.906,12.828z M63.602,12.828h-2.764V0.979h2.764V12.828
				L63.602,12.828z"/>
		</g>
		<g>
			<path fill="#775647" d="M71.939,12.828h-2.764V0.979h2.764V12.828L71.939,12.828z"/>
		</g>
		<g>
			<path fill="#775647" d="M82.996,13.462L74,4.332v-3.92l6.23,6.344V1.001h2.766V13.462L82.996,13.462z M76.721,12.828h-2.766
				V5.352l2.766,2.787V12.828L76.721,12.828z"/>
		</g>
		<g>
			<path fill="#775647" d="M87.775,12.828h-2.764V0.979h2.764V12.828L87.775,12.828z"/>
		</g>
	</g>
	<g>
		<g>
			<path fill="#775647" d="M27.827,24.61h-1.383v-5.938h1.383V24.61L27.827,24.61z M28.981,22.343h-0.748v-1.381h0.793
				c0.204,0,0.408-0.25,0.408-0.453c0-0.205-0.249-0.451-0.453-0.451h-0.748v-1.385h0.793c0.975,0,1.791,0.816,1.791,1.791
				C30.771,21.483,29.979,22.343,28.981,22.343L28.981,22.343z"/>
		</g>
		<g>
			<path fill="#775647" d="M32.788,24.61h-1.383v-5.938h1.383V24.61L32.788,24.61z"/>
		</g>
		<g>
			<path fill="#775647" d="M38.792,24.61h-5.348l0.815-1.383h4.51v1.383H38.792z M36.097,22.864h-1.609l1.473-2.447h1.608
				L36.097,22.864L36.097,22.864z M37.817,20.079h-4.236v-1.383h5.075L37.817,20.079L37.817,20.079z"/>
		</g>
		<g>
			<path fill="#775647" d="M44.502,24.61h-5.347l0.815-1.383h4.509v1.383H44.502z M41.828,22.864H40.22l1.473-2.447h1.608
				L41.828,22.864L41.828,22.864z M43.55,20.077l-4.237,0.002v-1.383h5.076L43.55,20.077L43.55,20.077z"/>
		</g>
		<g>
			<path fill="#775647" d="M49.736,24.61h-2.584v-1.383h2.584V24.61L49.736,24.61z M46.789,24.61h-1.381v-5.938h1.381V24.61
				L46.789,24.61z M49.736,22.343h-2.584v-1.381h2.584V22.343L49.736,22.343z M49.736,20.077h-2.584v-1.381h2.584V20.077
				L49.736,20.077z"/>
		</g>
		<g>
			<path fill="#775647" d="M55.15,24.61h-1.541l-0.814-1.994h0.18c0.385,0,0.793-0.113,1.043-0.273l0.135-0.064L55.15,24.61
				L55.15,24.61z M51.979,24.61h-1.383v-5.938h1.383V24.61L51.979,24.61z M53.156,22.343h-0.793v-1.381h0.793
				c0.203,0,0.408-0.25,0.408-0.453c0-0.205-0.205-0.451-0.408-0.451h-0.793v-1.385h0.793c0.975,0,1.791,0.816,1.791,1.836
				C54.947,21.483,54.131,22.343,53.156,22.343L53.156,22.343z"/>
		</g>
		<g>
			<path fill="#775647" d="M56.939,24.61h-1.381v-5.938h1.381V24.61L56.939,24.61z"/>
		</g>
		<g>
			<path fill="#775647" d="M63.691,24.61h-1.539l-0.523-0.975h-1.857l0.68-1.383h0.477l-1.201-2.332l0.793-1.52L63.691,24.61
				L63.691,24.61z M58.934,24.61h-1.541l2.197-4.307l0.748,1.52L58.934,24.61L58.934,24.61z"/>
		</g>
	</g>
</g>
</svg>
