<?xml version="1.0" encoding="utf-8"?>
<!-- Generator: Adobe Illustrator 16.0.0, SVG Export Plug-In . SVG Version: 6.00 Build 0)  -->
<!DOCTYPE svg PUBLIC "-//W3C//DTD SVG 1.1//EN" "http://www.w3.org/Graphics/SVG/1.1/DTD/svg11.dtd">
<svg version="1.1" id="Слой_1" xmlns="http://www.w3.org/2000/svg" xmlns:xlink="http://www.w3.org/1999/xlink" x="0px" y="0px" viewBox="0 0 65 65" enable-background="new 0 0 65 65" xml:space="preserve">
<g>
	<g>
		<path fill="#ffffff" style="fill: rgba(255,255,255,0.9)" d="M8.5,9.599c-3.3,0-6,2.7-6,6l0,0c0,3.3,2.7,6,6,6h48c3.3,0,6-2.7,6-6l0,0c0-3.3-2.7-6-6-6H8.5z"/>
	</g>
	<g>
		<path fill="#ffffff" style="fill: rgba(255,255,255,0.9)" d="M2.5,32.567c0,3.3,2.7,6,6,6h48c3.3,0,6-2.7,6-6v0c0-3.3-2.7-6-6-6h-48
			C5.201,26.566,2.5,29.267,2.5,32.567L2.5,32.567z"/>
	</g>
	<g>
		<path fill="#ffffff" style="fill: rgba(255,255,255,0.9)" d="M2.5,49.401c0,3.3,2.7,6,6,6h48c3.3,0,6-2.7,6-6V49.4c0-3.3-2.7-6-6-6h-48C5.201,43.4,2.5,46.1,2.5,49.401
			L2.5,49.401z"/>
	</g>
</g>
</svg>
