<?xml version="1.0" encoding="UTF-8" standalone="no"?>
<svg width="104px" height="50px" viewBox="0 0 104 50" version="1.1" xmlns="http://www.w3.org/2000/svg" xmlns:xlink="http://www.w3.org/1999/xlink" xmlns:sketch="http://www.bohemiancoding.com/sketch/ns">
    <!-- Generator: Sketch 3.4 (15575) - http://www.bohemiancoding.com/sketch -->
    <title>Group</title>
    <desc>Created with Sketch.</desc>
    <defs></defs>
    <g id="Меню-и-главная" stroke="none" stroke-width="1" fill="none" fill-rule="evenodd" sketch:type="MSPage">
        <g id="Главная-с-командой" sketch:type="MSArtboardGroup" transform="translate(-319.000000, -425.000000)" fill="#765646">
            <g id="Rests" sketch:type="MSLayerGroup" transform="translate(240.000000, 0.000000)">
                <g id="-easylife" transform="translate(27.000000, 425.000000)" sketch:type="MSShapeGroup">
                    <g id="Group" transform="translate(52.000000, 0.000000)">
                        <path d="M31.8695,1.7192 C32.0785,1.7192 32.2795,1.7912 32.4705,1.9362 C32.6615,2.0812 32.8215,2.2642 32.9535,2.4882 C33.0845,2.7112 33.1835,2.9652 33.2485,3.2472 C33.3145,3.5302 33.3345,3.8162 33.3085,4.1052 C33.6235,3.8162 33.9495,3.5262 34.2845,3.2372 C34.6195,2.9482 34.9615,2.6912 35.3095,2.4682 C35.6575,2.2442 35.9965,2.0672 36.3255,1.9362 C36.6525,1.8052 36.9685,1.7392 37.2705,1.7392 C37.6655,1.7392 38.0275,1.8312 38.3565,2.0142 C38.6845,2.1992 38.9675,2.4352 39.2035,2.7252 C39.4405,3.0132 39.6245,3.3422 39.7555,3.7102 C39.8865,4.0792 39.9515,4.4402 39.9515,4.7952 C39.9515,5.3342 39.8935,5.8892 39.7755,6.4612 C39.6565,7.0322 39.5005,7.5872 39.3025,8.1272 C39.1055,8.6662 38.8755,9.1752 38.6125,9.6552 C38.3485,10.1342 38.0665,10.5582 37.7645,10.9272 C37.4225,11.3472 37.1125,11.6962 36.8385,11.9712 C36.5615,12.2482 36.3645,12.3962 36.2465,12.4152 C36.1275,12.4352 36.1075,12.2932 36.1865,11.9912 C36.2655,11.6892 36.4955,11.1632 36.8765,10.4132 C36.9955,10.1642 37.1325,9.8582 37.2905,9.4972 C37.4485,9.1352 37.5925,8.7382 37.7245,8.3042 C37.8565,7.8712 37.9675,7.4142 38.0595,6.9342 C38.1515,6.4542 38.1975,5.9652 38.1975,5.4652 C38.1975,5.2422 38.1745,5.0222 38.1295,4.8052 C38.0815,4.5872 38.0115,4.3942 37.9125,4.2232 C37.8145,4.0522 37.6955,3.9142 37.5565,3.8092 C37.4195,3.7042 37.2645,3.6512 37.0945,3.6512 C36.7785,3.6512 36.4325,3.7822 36.0585,4.0462 C35.6845,4.3092 35.3125,4.6212 34.9445,4.9822 C34.5765,5.3432 34.2245,5.7252 33.8895,6.1262 C33.5545,6.5262 33.2625,6.8652 33.0125,7.1412 C32.7095,7.3652 32.4405,7.4792 32.2045,7.4862 C31.9675,7.4932 31.7705,7.4302 31.6125,7.2992 C31.4555,7.1682 31.3395,7.0002 31.2675,6.7952 C31.1945,6.5932 31.1715,6.3982 31.1985,6.2142 C31.3035,5.8722 31.3925,5.4852 31.4645,5.0512 C31.5365,4.6172 31.5535,4.2292 31.5145,3.8882 C31.2515,4.0462 30.9755,4.2762 30.6865,4.5782 C30.3965,4.8802 30.1165,5.2052 29.8475,5.5542 C29.5785,5.9022 29.3325,6.2512 29.1085,6.5992 C28.8855,6.9472 28.7085,7.2522 28.5755,7.5162 C28.4845,7.6472 28.3595,7.7822 28.2005,7.9202 C28.0445,8.0582 27.8835,8.1762 27.7185,8.2742 C27.5545,8.3732 27.3995,8.4452 27.2545,8.4912 C27.1105,8.5372 27.0115,8.5342 26.9595,8.4812 C26.8805,8.4162 26.8335,8.2322 26.8215,7.9302 C26.8085,7.6272 26.8875,7.1742 27.0585,6.5692 C27.1765,6.2412 27.3525,5.8822 27.5895,5.4942 C27.8265,5.1072 28.0895,4.7252 28.3795,4.3512 C28.6685,3.9762 28.9775,3.6182 29.3055,3.2772 C29.6335,2.9352 29.9525,2.6422 30.2615,2.3992 C30.5705,2.1562 30.8655,1.9692 31.1485,1.8372 C31.4315,1.7062 31.6715,1.6672 31.8695,1.7192" id="Fill-1"></path>
                        <path d="M46.9922,7.4567 C46.7162,7.4567 46.4012,7.4337 46.0452,7.3877 C45.6902,7.3417 45.3352,7.2557 44.9802,7.1307 C44.6252,7.0067 44.2972,6.8227 43.9952,6.5797 C43.6922,6.3357 43.4562,6.0167 43.2852,5.6227 L43.0282,5.6227 C42.8712,5.5307 42.7432,5.4097 42.6442,5.2587 C42.5452,5.1077 42.4892,4.9427 42.4762,4.7647 C42.4632,4.5877 42.4962,4.4137 42.5752,4.2427 C42.6532,4.0717 42.8052,3.9207 43.0282,3.7887 L43.2852,3.7887 C43.5212,3.1717 43.8902,2.6287 44.3902,2.1617 C44.8882,1.6957 45.4532,1.3117 46.0842,1.0087 C46.7162,0.7067 47.3922,0.4807 48.1152,0.3287 C48.8392,0.1777 49.5482,0.1087 50.2442,0.1217 C50.4552,0.1217 50.7092,0.1417 51.0042,0.1807 C51.2992,0.2207 51.5792,0.2927 51.8422,0.3977 C52.1042,0.5037 52.3282,0.6577 52.5122,0.8607 C52.6962,1.0657 52.7892,1.3377 52.7892,1.6797 C52.7892,2.0737 52.6502,2.4357 52.3742,2.7637 C52.0982,3.0927 51.7442,3.3947 51.3102,3.6707 C50.8762,3.9467 50.3832,4.1967 49.8312,4.4197 C49.2792,4.6437 48.7302,4.8307 48.1852,4.9817 C47.6392,5.1327 47.1192,5.2547 46.6262,5.3467 C46.1342,5.4387 45.7232,5.4917 45.3942,5.5047 C45.5522,5.6627 45.7992,5.7897 46.1342,5.8887 C46.4692,5.9877 46.8342,6.0597 47.2282,6.1057 C47.6222,6.1517 48.0302,6.1847 48.4512,6.2047 C48.8712,6.2237 49.2522,6.2407 49.5942,6.2537 C49.9362,6.2667 50.2162,6.2837 50.4322,6.3037 C50.6492,6.3227 50.7582,6.3587 50.7582,6.4117 C50.7582,6.4777 50.6662,6.5687 50.4812,6.6877 C50.2972,6.8057 50.0412,6.9207 49.7122,7.0327 C49.3832,7.1447 48.9902,7.2427 48.5302,7.3287 C48.0702,7.4137 47.5572,7.4567 46.9922,7.4567 M45.5922,3.6707 C46.4732,3.5397 47.3102,3.3387 48.1062,3.0697 C48.9012,2.8007 49.6132,2.4677 50.2442,2.0737 C49.7192,2.0737 49.2032,2.1197 48.6972,2.2117 C48.1912,2.3037 47.7242,2.4217 47.2972,2.5667 C46.8702,2.7117 46.5082,2.8827 46.2122,3.0787 C45.9162,3.2767 45.7102,3.4737 45.5922,3.6707" id="Fill-5"></path>
                        <path d="M62.0745,5.4455 C61.9825,5.8005 61.9035,6.0965 61.8375,6.3335 C61.7725,6.5695 61.7135,6.8325 61.6615,7.1215 C61.5825,7.5675 61.4595,7.9035 61.2965,8.1265 C61.1305,8.3505 60.9835,8.4625 60.8525,8.4625 C60.7735,8.4625 60.6875,8.4095 60.5955,8.3045 C60.5035,8.1985 60.4215,8.0675 60.3495,7.9095 C60.2775,7.7525 60.2215,7.5845 60.1825,7.4075 C60.1435,7.2295 60.1235,7.0625 60.1235,6.9045 C60.1355,6.7605 60.1585,6.5535 60.1915,6.2835 C60.2245,6.0135 60.2735,5.6825 60.3395,5.2875 C59.9575,5.2745 59.5995,5.2585 59.2645,5.2385 C58.9295,5.2185 58.6015,5.2025 58.2795,5.1895 C57.9565,5.1755 57.6315,5.1695 57.3035,5.1695 C56.9745,5.1695 56.6195,5.1755 56.2385,5.1895 C56.1205,5.5705 56.0285,5.8625 55.9615,6.0665 C55.8965,6.2705 55.8365,6.4965 55.7845,6.7465 C55.6655,7.1285 55.5155,7.4635 55.3315,7.7525 C55.1465,8.0415 54.9635,8.1855 54.7795,8.1855 C54.7405,8.1855 54.6875,8.1435 54.6215,8.0585 C54.5565,7.9725 54.4935,7.8635 54.4345,7.7325 C54.3745,7.6015 54.3225,7.4595 54.2755,7.3085 C54.2295,7.1585 54.2075,7.0225 54.2075,6.9045 C54.2075,6.4185 54.2565,5.9085 54.3555,5.3765 C54.4545,4.8435 54.5825,4.3345 54.7405,3.8485 C54.8975,3.3625 55.0675,2.9155 55.2525,2.5075 C55.4355,2.1005 55.6065,1.7775 55.7645,1.5415 C56.1455,1.2525 56.4745,1.1705 56.7505,1.2945 C57.0275,1.4195 57.2305,1.6465 57.3625,1.9745 C57.2965,2.1595 57.2115,2.3925 57.1055,2.6755 C57.0005,2.9585 56.9155,3.1775 56.8495,3.3355 C57.6115,3.3485 58.3015,3.3785 58.9205,3.4245 C59.5375,3.4705 60.1545,3.5465 60.7735,3.6515 C60.8385,3.3875 60.9215,3.1055 61.0205,2.8035 C61.1185,2.5015 61.2395,2.1795 61.3845,1.8365 C61.5285,1.7195 61.6935,1.6275 61.8775,1.5615 C62.0625,1.4955 62.2355,1.4755 62.3995,1.5025 C62.5645,1.5285 62.7065,1.6175 62.8235,1.7685 C62.9415,1.9195 63.0015,2.1395 63.0015,2.4285 C62.9095,2.6915 62.8205,2.9645 62.7355,3.2475 C62.6495,3.5305 62.5535,3.8025 62.4495,4.0655 C62.9215,4.2235 63.3425,4.4035 63.7115,4.6075 C64.0795,4.8115 64.3155,4.9985 64.4215,5.1695 C64.5255,5.3405 64.4545,5.4685 64.2045,5.5535 C63.9545,5.6395 63.4475,5.6295 62.6865,5.5245 L62.0745,5.4455 Z" id="Fill-12"></path>
                        <path d="M71.9922,7.3381 C71.6512,7.3381 71.2952,7.3051 70.9272,7.2401 C70.5602,7.1741 70.2112,7.0691 69.8832,6.9241 C69.5542,6.7801 69.2612,6.5831 69.0062,6.3331 C68.7492,6.0831 68.5742,5.7811 68.4832,5.4261 C68.2992,5.4521 68.1312,5.4751 67.9792,5.4941 C67.8282,5.5141 67.6802,5.5381 67.5362,5.5641 C67.5242,5.5901 67.5192,5.6101 67.5272,5.6221 C67.5332,5.6361 67.5292,5.6561 67.5162,5.6821 L67.3992,5.9971 C67.3062,6.3661 67.1522,6.6811 66.9342,6.9441 C66.7182,7.2071 66.5432,7.3381 66.4122,7.3381 C66.3462,7.3381 66.2712,7.3221 66.1862,7.2891 C66.1002,7.2561 66.0182,7.1881 65.9392,7.0821 C65.8602,6.9771 65.7912,6.8191 65.7322,6.6091 C65.6742,6.3981 65.6432,6.1221 65.6432,5.7811 C65.6432,5.6361 65.6762,5.3801 65.7422,5.0121 C65.8082,4.6441 65.8992,4.2761 66.0182,3.9071 C66.1102,3.6311 66.2352,3.3031 66.3922,2.9221 C66.5512,2.5401 66.7042,2.1761 66.8552,1.8271 C67.0072,1.4791 67.1482,1.1801 67.2802,0.9301 C67.4112,0.6811 67.5102,0.5491 67.5762,0.5361 C68.0232,0.4571 68.5292,0.7401 69.0942,1.3841 C68.9102,1.7391 68.7252,2.1101 68.5412,2.4981 C68.3582,2.8851 68.1932,3.3031 68.0492,3.7501 C68.1542,3.7241 68.2652,3.7071 68.3842,3.7001 C68.5022,3.6941 68.6282,3.6841 68.7592,3.6711 C68.9172,3.5001 69.1422,3.2891 69.4392,3.0401 C69.7352,2.7901 70.0962,2.5511 70.5242,2.3201 C70.9502,2.0911 71.4342,1.8931 71.9732,1.7291 C72.5112,1.5641 73.1092,1.4821 73.7672,1.4821 C74.0962,1.4821 74.4402,1.5291 74.8022,1.6201 C75.1642,1.7121 75.4922,1.8571 75.7882,2.0541 C76.0842,2.2511 76.3262,2.5011 76.5182,2.8041 C76.7072,3.1061 76.8032,3.4741 76.8032,3.9071 C76.8032,4.5651 76.6252,5.1101 76.2712,5.5441 C75.9152,5.9781 75.4892,6.3291 74.9902,6.5991 C74.4902,6.8681 73.9642,7.0601 73.4122,7.1711 C72.8592,7.2821 72.3862,7.3381 71.9922,7.3381 M75.0102,4.0261 C75.0102,3.8951 74.9622,3.7821 74.8712,3.6911 C74.7802,3.5991 74.6672,3.5231 74.5362,3.4641 C74.4042,3.4041 74.2562,3.3651 74.0912,3.3451 C73.9282,3.3251 73.7802,3.3161 73.6482,3.3161 C73.3462,3.3161 73.0302,3.3351 72.7032,3.3751 C72.3742,3.4151 72.0512,3.4741 71.7362,3.5521 C71.4202,3.6311 71.1182,3.7331 70.8282,3.8591 C70.5402,3.9831 70.2902,4.1311 70.0802,4.3011 C70.1192,4.4201 70.1392,4.5581 70.1392,4.7161 C70.1392,4.7811 70.1692,4.8571 70.2282,4.9431 C70.2862,5.0281 70.3822,5.1071 70.5132,5.1801 C70.6452,5.2521 70.8192,5.3141 71.0362,5.3671 C71.2532,5.4191 71.5192,5.4461 71.8352,5.4461 C72.1242,5.4461 72.4532,5.4161 72.8212,5.3571 C73.1882,5.2971 73.5332,5.2091 73.8562,5.0901 C74.1782,4.9721 74.4512,4.8241 74.6742,4.6461 C74.8972,4.4691 75.0102,4.2621 75.0102,4.0261" id="Fill-16"></path>
                        <path d="M31.7859,42.9208 C31.5889,43.3818 31.4049,43.8508 31.2349,44.3308 C31.0639,44.8098 30.9059,45.2998 30.7609,45.7998 C30.6829,46.0758 30.5909,46.3358 30.4859,46.5778 C30.3789,46.8208 30.2739,47.0378 30.1689,47.2288 C30.0639,47.4198 29.9659,47.5708 29.8739,47.6828 C29.7819,47.7938 29.7029,47.8508 29.6369,47.8508 C29.5719,47.8508 29.5099,47.7908 29.4499,47.6728 C29.3909,47.5538 29.3409,47.4068 29.3019,47.2288 C29.2629,47.0508 29.2329,46.8668 29.2129,46.6768 C29.1929,46.4858 29.1899,46.3118 29.2029,46.1538 C29.2029,45.9568 29.2199,45.7168 29.2529,45.4348 C29.2859,45.1528 29.3319,44.8598 29.3909,44.5578 C29.4499,44.2548 29.5159,43.9588 29.5879,43.6698 C29.6609,43.3818 29.7429,43.1248 29.8339,42.9008 C29.4929,43.0598 29.1499,43.2328 28.8089,43.4238 C28.4659,43.6138 28.1389,43.8048 27.8229,43.9958 C27.5069,44.1858 27.2149,44.3728 26.9459,44.5578 C26.6759,44.7408 26.4439,44.9048 26.2469,45.0498 C25.8519,45.3528 25.5259,45.5828 25.2709,45.7408 C25.0139,45.8978 24.8259,46.0098 24.7079,46.0758 C24.4449,46.2208 24.2739,46.2598 24.1949,46.1938 C24.1159,46.1278 24.1069,45.9938 24.1659,45.7888 C24.2239,45.5858 24.3459,45.3288 24.5299,45.0208 C24.7139,44.7118 24.9449,44.3808 25.2199,44.0248 C25.4839,43.6968 25.7889,43.3878 26.1369,43.0988 C26.4849,42.8098 26.8539,42.5358 27.2419,42.2798 C27.6289,42.0238 28.0269,41.7908 28.4349,41.5798 C28.8409,41.3698 29.2359,41.1848 29.6169,41.0278 C29.0649,40.7258 28.5139,40.4888 27.9609,40.3188 C27.4089,40.1468 26.9229,39.9898 26.5029,39.8448 C26.0949,39.3978 25.9699,39.0298 26.1279,38.7408 C26.2859,38.4518 26.6269,38.2738 27.1529,38.2088 C27.2449,38.2218 27.4089,38.2578 27.6459,38.3168 C27.8819,38.3758 28.1719,38.4648 28.5139,38.5828 C28.8549,38.7008 29.2399,38.8528 29.6669,39.0368 C30.0939,39.2208 30.5509,39.4438 31.0369,39.7068 C31.2739,39.1948 31.5429,38.6348 31.8449,38.0308 C32.1469,37.4268 32.4759,36.8088 32.8309,36.1778 C33.0149,36.0728 33.1799,35.9968 33.3249,35.9508 C33.4689,35.9048 33.5929,35.8818 33.6989,35.8818 C33.9089,35.8818 34.0699,35.9348 34.1819,36.0388 C34.2939,36.1448 34.3659,36.2758 34.3989,36.4338 C34.4319,36.5918 34.4389,36.7558 34.4189,36.9278 C34.3989,37.0978 34.3689,37.2498 34.3289,37.3798 C34.1849,37.6428 34.0589,37.8638 33.9549,38.0408 C33.8489,38.2188 33.7509,38.3828 33.6599,38.5338 C33.5679,38.6848 33.4829,38.8268 33.4039,38.9578 C33.3249,39.0898 33.2389,39.2408 33.1469,39.4118 C33.9739,39.1088 34.7659,38.8558 35.5229,38.6528 C36.2789,38.4488 36.9979,38.3408 37.6819,38.3268 C38.1679,38.6028 38.4119,38.9118 38.4119,39.2538 C38.4119,39.6088 38.1549,39.9108 37.6429,40.1608 C37.2079,40.1738 36.7409,40.2258 36.2429,40.3188 C35.7429,40.4108 35.2569,40.5158 34.7829,40.6338 C34.3089,40.7518 33.8829,40.8698 33.5019,40.9888 C33.1199,41.1068 32.8449,41.2048 32.6739,41.2838 C33.0419,41.4818 33.4649,41.7208 33.9449,42.0038 C34.4249,42.2868 34.8979,42.6118 35.3639,42.9798 C35.8319,43.3478 36.2549,43.7518 36.6359,44.1928 C37.0179,44.6328 37.2999,45.1098 37.4849,45.6218 C37.5099,45.6878 37.5069,45.7268 37.4749,45.7408 C37.4409,45.7528 37.3929,45.7408 37.3269,45.7018 C37.2349,45.6488 37.1099,45.5688 36.9529,45.4648 C36.7939,45.3588 36.6299,45.2538 36.4589,45.1488 C36.2879,45.0438 36.1279,44.9448 35.9759,44.8528 C35.8239,44.7608 35.7169,44.6948 35.6509,44.6558 C35.0979,44.3278 34.4789,44.0078 33.7869,43.6998 C33.0969,43.3908 32.4299,43.1318 31.7859,42.9208" id="Fill-22"></path>
                        <path d="M46.6328,43.0983 C46.6328,43.0323 46.6398,42.9343 46.6528,42.8023 C46.6658,42.6713 46.6828,42.5333 46.7028,42.3883 C46.7218,42.2443 46.7448,42.0993 46.7708,41.9553 C46.7968,41.8103 46.8168,41.6983 46.8308,41.6193 C46.5278,41.9223 46.2058,42.2103 45.8638,42.4873 C45.5218,42.7633 45.1738,43.0063 44.8198,43.2173 C44.4638,43.4273 44.1098,43.5983 43.7538,43.7293 C43.3998,43.8603 43.0568,43.9263 42.7288,43.9263 C41.8348,43.9263 41.1478,43.7133 40.6678,43.2853 C40.1888,42.8583 39.9498,42.1713 39.9498,41.2253 C39.9498,40.7783 40.0218,40.3013 40.1658,39.7953 C40.3108,39.2903 40.6198,38.6883 41.0928,37.9913 C41.2898,37.7683 41.4738,37.6103 41.6438,37.5183 C41.8148,37.4273 41.9668,37.3803 42.0988,37.3803 C42.3738,37.3803 42.5608,37.5023 42.6598,37.7453 C42.7588,37.9883 42.8078,38.2873 42.8078,38.6423 C42.6238,39.0233 42.4238,39.4143 42.2058,39.8153 C41.9898,40.2163 41.8818,40.6473 41.8818,41.1073 C41.8818,41.4883 41.9708,41.7513 42.1468,41.8963 C42.3248,42.0403 42.5258,42.1123 42.7488,42.1123 C43.0378,42.1123 43.3838,41.9943 43.7838,41.7573 C44.1848,41.5213 44.5858,41.2383 44.9868,40.9093 C45.3868,40.5813 45.7688,40.2363 46.1308,39.8743 C46.4918,39.5133 46.7708,39.2073 46.9678,38.9573 C47.1918,38.6683 47.4278,38.4453 47.6778,38.2873 C47.9268,38.1293 48.1438,38.0513 48.3288,38.0513 C48.6438,38.0513 48.8378,38.2483 48.9108,38.6423 C48.9818,39.0373 48.8998,39.5753 48.6638,40.2593 C48.5188,40.6933 48.3978,41.0513 48.2988,41.3333 C48.2008,41.6163 48.1118,41.8723 48.0338,42.1023 C47.9548,42.3323 47.8818,42.5593 47.8158,42.7833 C47.7498,43.0063 47.6848,43.2693 47.6198,43.5713 C47.5668,43.7813 47.5168,43.9953 47.4698,44.2123 C47.4248,44.4293 47.3718,44.5963 47.3128,44.7153 C47.2538,44.8333 47.1858,44.8723 47.1058,44.8333 C47.0268,44.7943 46.9288,44.6223 46.8108,44.3213 C46.7058,44.0573 46.6498,43.8313 46.6438,43.6403 C46.6358,43.4503 46.6328,43.2693 46.6328,43.0983" id="Fill-26"></path>
                        <path d="M55.9348,44.3209 C55.3698,44.6619 54.7748,45.0069 54.1508,45.3559 C53.5268,45.7039 52.9518,46.0889 52.4258,46.5099 C51.7158,47.1009 51.0978,47.6329 50.5718,48.1069 C50.0458,48.5799 49.5198,49.0459 48.9958,49.5069 C48.8768,49.6109 48.8398,49.5619 48.8858,49.3589 C48.9328,49.1549 49.0578,48.8619 49.2608,48.4809 C49.4638,48.0989 49.7438,47.6529 50.0988,47.1399 C50.4538,46.6279 50.8808,46.1089 51.3808,45.5829 C51.6828,45.2799 52.0568,44.9619 52.5038,44.6259 C52.9518,44.2919 53.4368,43.9659 53.9638,43.6499 C53.7928,43.5839 53.5888,43.5089 53.3518,43.4239 C53.1158,43.3379 52.9378,43.2629 52.8198,43.1969 C51.8338,42.7499 51.3408,42.2379 51.3408,41.6589 C51.3408,41.4879 51.4198,41.3039 51.5778,41.1069 C51.7348,40.9099 51.9528,40.7199 52.2278,40.5349 C52.5038,40.3509 52.8398,40.1869 53.2338,40.0419 C53.6278,39.8969 54.0618,39.7859 54.5358,39.7069 C54.3388,39.6279 54.1508,39.5759 53.9728,39.5499 C53.7958,39.5229 53.6278,39.5099 53.4708,39.5099 C53.1678,39.5099 52.8918,39.5389 52.6418,39.5979 C52.3928,39.6569 52.1358,39.7269 51.8738,39.8059 C51.5328,39.8059 51.2158,39.7399 50.9278,39.6079 C50.6378,39.4769 50.4938,39.2799 50.4938,39.0169 C50.4938,38.8989 50.5428,38.7509 50.6418,38.5729 C50.7408,38.3959 50.9008,38.2019 51.1238,37.9919 C51.4268,37.8729 51.7628,37.7809 52.1298,37.7159 C52.4968,37.6499 52.8718,37.6169 53.2528,37.6169 C53.6348,37.6169 54.0128,37.6529 54.3878,37.7249 C54.7618,37.7969 55.0998,37.8999 55.4028,38.0309 C55.9288,38.2809 56.3368,38.5429 56.6258,38.8199 C56.9138,39.0959 57.0588,39.3849 57.0588,39.6869 C57.0588,39.8719 56.9838,40.0519 56.8328,40.2289 C56.6808,40.4069 56.4708,40.5779 56.2008,40.7429 C55.9308,40.9069 55.6158,41.0649 55.2548,41.2149 C54.8928,41.3669 54.5018,41.5079 54.0818,41.6389 C54.1998,41.6789 54.3078,41.7189 54.4068,41.7579 C54.5058,41.7969 54.6038,41.8339 54.7028,41.8659 C54.8018,41.8989 54.9128,41.9349 55.0378,41.9739 C55.1628,42.0139 55.3178,42.0599 55.5018,42.1119 C56.2638,42.3369 56.6458,42.7229 56.6458,43.2759 C56.6458,43.6699 56.4078,44.0179 55.9348,44.3209" id="Fill-30"></path>
                        <path d="M66.6326,41.9943 C66.5406,42.3493 66.4616,42.6453 66.3956,42.8823 C66.3306,43.1183 66.2716,43.3813 66.2186,43.6703 C66.1396,44.1163 66.0176,44.4523 65.8546,44.6753 C65.6886,44.8993 65.5416,45.0113 65.4096,45.0113 C65.3316,45.0113 65.2446,44.9583 65.1536,44.8533 C65.0616,44.7473 64.9796,44.6163 64.9076,44.4583 C64.8356,44.3013 64.7796,44.1333 64.7406,43.9563 C64.7006,43.7783 64.6806,43.6113 64.6806,43.4533 C64.6936,43.3093 64.7166,43.1013 64.7496,42.8323 C64.7826,42.5623 64.8316,42.2303 64.8976,41.8363 C64.5156,41.8233 64.1576,41.8073 63.8226,41.7873 C63.4886,41.7673 63.1596,41.7513 62.8376,41.7373 C62.5146,41.7243 62.1886,41.7183 61.8616,41.7183 C61.5326,41.7183 61.1776,41.7243 60.7956,41.7373 C60.6786,42.1193 60.5856,42.4113 60.5196,42.6153 C60.4546,42.8193 60.3946,43.0453 60.3426,43.2953 C60.2236,43.6773 60.0736,44.0123 59.8896,44.3013 C59.7046,44.5903 59.5216,44.7343 59.3376,44.7343 C59.2976,44.7343 59.2456,44.6923 59.1796,44.6063 C59.1146,44.5213 59.0516,44.4123 58.9926,44.2813 C58.9326,44.1503 58.8796,44.0083 58.8336,43.8573 C58.7876,43.7073 58.7656,43.5713 58.7656,43.4533 C58.7656,42.9673 58.8146,42.4573 58.9136,41.9253 C59.0126,41.3923 59.1406,40.8833 59.2976,40.3963 C59.4556,39.9113 59.6256,39.4643 59.8106,39.0563 C59.9936,38.6483 60.1646,38.3263 60.3226,38.0903 C60.7036,37.8013 61.0326,37.7193 61.3086,37.8433 C61.5846,37.9683 61.7886,38.1953 61.9206,38.5233 C61.8536,38.7083 61.7696,38.9413 61.6636,39.2243 C61.5586,39.5073 61.4736,39.7263 61.4076,39.8843 C62.1696,39.8973 62.8596,39.9273 63.4776,39.9733 C64.0956,40.0193 64.7126,40.0943 65.3316,40.2003 C65.3966,39.9363 65.4796,39.6543 65.5776,39.3523 C65.6766,39.0503 65.7976,38.7283 65.9426,38.3853 C66.0866,38.2683 66.2516,38.1753 66.4356,38.1103 C66.6206,38.0443 66.7936,38.0243 66.9576,38.0513 C67.1226,38.0773 67.2646,38.1663 67.3816,38.3173 C67.4996,38.4683 67.5596,38.6883 67.5596,38.9773 C67.4666,39.2403 67.3786,39.5133 67.2936,39.7963 C67.2076,40.0793 67.1116,40.3513 67.0076,40.6143 C67.4806,40.7723 67.9006,40.9523 68.2696,41.1563 C68.6376,41.3593 68.8736,41.5473 68.9796,41.7183 C69.0836,41.8893 69.0126,42.0173 68.7626,42.1023 C68.5126,42.1883 68.0056,42.1783 67.2446,42.0733 L66.6326,41.9943 Z" id="Fill-34"></path>
                        <path d="M77.2759,43.0044 C77.2729,42.9384 77.2749,42.8404 77.2829,42.7084 C77.2899,42.5764 77.3019,42.4384 77.3149,42.2924 C77.3279,42.1474 77.3439,42.0014 77.3659,41.8564 C77.3849,41.7104 77.4009,41.5984 77.4119,41.5184 C77.1199,41.8334 76.8119,42.1354 76.4809,42.4264 C76.1519,42.7164 75.8139,42.9744 75.4679,43.1994 C75.1229,43.4244 74.7759,43.6094 74.4269,43.7554 C74.0779,43.9024 73.7389,43.9824 73.4099,43.9964 C72.5159,44.0334 71.8219,43.8494 71.3249,43.4424 C70.8269,43.0354 70.5589,42.3594 70.5189,41.4134 C70.4999,40.9674 70.5519,40.4884 70.6749,39.9764 C70.7979,39.4654 71.0819,38.8514 71.5259,38.1354 C71.7129,37.9044 71.8909,37.7384 72.0569,37.6394 C72.2229,37.5404 72.3729,37.4874 72.5049,37.4824 C72.7799,37.4704 72.9719,37.5844 73.0819,37.8234 C73.1909,38.0624 73.2519,38.3594 73.2659,38.7134 C73.0989,39.1014 72.9149,39.5014 72.7149,39.9104 C72.5159,40.3204 72.4259,40.7554 72.4449,41.2144 C72.4609,41.5954 72.5599,41.8544 72.7429,41.9914 C72.9269,42.1284 73.1299,42.1924 73.3529,42.1834 C73.6419,42.1704 73.9819,42.0374 74.3719,41.7844 C74.7629,41.5314 75.1529,41.2324 75.5389,40.8874 C75.9259,40.5414 76.2919,40.1814 76.6379,39.8044 C76.9829,39.4284 77.2509,39.1114 77.4369,38.8534 C77.6469,38.5554 77.8739,38.3214 78.1169,38.1544 C78.3599,37.9864 78.5739,37.8974 78.7579,37.8904 C79.0729,37.8764 79.2749,38.0664 79.3639,38.4564 C79.4519,38.8474 79.3929,39.3894 79.1849,40.0824 C79.0589,40.5214 78.9529,40.8854 78.8659,41.1714 C78.7809,41.4584 78.7019,41.7174 78.6319,41.9504 C78.5639,42.1844 78.5009,42.4134 78.4439,42.6394 C78.3889,42.8654 78.3339,43.1314 78.2809,43.4354 C78.2369,43.6474 78.1969,43.8634 78.1599,44.0824 C78.1229,44.3004 78.0779,44.4694 78.0239,44.5904 C77.9689,44.7114 77.9019,44.7544 77.8219,44.7174 C77.7419,44.6824 77.6349,44.5154 77.5049,44.2184 C77.3879,43.9594 77.3229,43.7364 77.3089,43.5454 C77.2929,43.3564 77.2829,43.1754 77.2759,43.0044" id="Fill-38"></path>
                        <path d="M44.5667,25.4548 C44.4357,25.0608 44.3737,24.6758 44.3797,24.3008 C44.3867,23.9268 44.3837,23.6348 44.3697,23.4248 C44.0807,23.6608 43.7427,23.9368 43.3547,24.2518 C42.9657,24.5678 42.5567,24.8928 42.1227,25.2278 C41.6877,25.5638 41.2407,25.8988 40.7817,26.2338 C40.3207,26.5688 39.8777,26.8848 39.4507,27.1798 C39.0237,27.4758 38.6197,27.7418 38.2387,27.9788 C37.8577,28.2158 37.5287,28.3988 37.2527,28.5308 C36.8577,28.7148 36.4907,28.8698 36.1477,28.9938 C35.8067,29.1188 35.5147,29.2108 35.2697,29.2698 C35.0287,29.3298 34.8407,29.3588 34.7087,29.3588 C34.5767,29.3588 34.5187,29.3198 34.5307,29.2408 C34.5307,29.1878 34.6097,29.0958 34.7677,28.9648 C34.9257,28.8328 35.1137,28.6948 35.3297,28.5508 C35.5457,28.4058 35.7637,28.2618 35.9797,28.1168 C36.1977,27.9718 36.3717,27.8538 36.5027,27.7618 C36.7147,27.6298 37.0157,27.4098 37.4097,27.1008 C37.8047,26.7928 38.2517,26.4308 38.7517,26.0168 C39.2497,25.6028 39.7727,25.1498 40.3177,24.6568 C40.8637,24.1628 41.3827,23.6668 41.8757,23.1678 C42.3697,22.6688 42.8087,22.1858 43.1957,21.7188 C43.5847,21.2518 43.8767,20.8278 44.0747,20.4468 C44.1527,20.3158 44.2547,20.1878 44.3797,20.0618 C44.5047,19.9378 44.6427,19.8358 44.7937,19.7568 C44.9447,19.6778 45.1027,19.6248 45.2667,19.5988 C45.4317,19.5728 45.5927,19.5858 45.7497,19.6388 C45.9347,19.7038 46.0817,19.7958 46.1937,19.9148 C46.3057,20.0328 46.3907,20.1608 46.4507,20.2988 C46.5097,20.4368 46.5457,20.5778 46.5577,20.7228 C46.5717,20.8678 46.5717,20.9988 46.5577,21.1178 C46.5577,21.3808 46.5257,21.6568 46.4587,21.9458 C46.3937,22.2348 46.3387,22.5338 46.2917,22.8418 C46.2457,23.1518 46.2207,23.4568 46.2137,23.7588 C46.2067,24.0618 46.2637,24.3578 46.3807,24.6468 C46.3807,24.8308 46.3677,25.0148 46.3417,25.1978 C46.3147,25.3568 46.2827,25.5208 46.2437,25.6918 C46.2047,25.8618 46.1447,26.0008 46.0657,26.1058 C45.9597,26.2368 45.8397,26.2988 45.7007,26.2928 C45.5627,26.2858 45.4207,26.2398 45.2777,26.1548 C45.1327,26.0688 44.9977,25.9608 44.8727,25.8298 C44.7477,25.6978 44.6457,25.5738 44.5667,25.4548" id="Fill-42"></path>
                        <path d="M52.8956,25.7311 C52.6196,25.7311 52.3046,25.7081 51.9496,25.6621 C51.5946,25.6161 51.2396,25.5301 50.8836,25.4051 C50.5286,25.2811 50.2016,25.0971 49.8986,24.8541 C49.5966,24.6101 49.3596,24.2911 49.1886,23.8971 L48.9326,23.8971 C48.7746,23.8051 48.6466,23.6841 48.5476,23.5331 C48.4486,23.3821 48.3936,23.2171 48.3796,23.0391 C48.3666,22.8621 48.3996,22.6881 48.4786,22.5171 C48.5576,22.3461 48.7086,22.1951 48.9326,22.0631 L49.1886,22.0631 C49.4246,21.4461 49.7936,20.9031 50.2936,20.4361 C50.7916,19.9711 51.3566,19.5861 51.9886,19.2831 C52.6196,18.9811 53.2966,18.7551 54.0186,18.6031 C54.7426,18.4521 55.4516,18.3831 56.1486,18.3961 C56.3586,18.3961 56.6126,18.4161 56.9076,18.4551 C57.2026,18.4951 57.4826,18.5671 57.7466,18.6721 C58.0076,18.7781 58.2316,18.9321 58.4156,19.1351 C58.6006,19.3401 58.6926,19.6121 58.6926,19.9541 C58.6926,20.3481 58.5536,20.7101 58.2776,21.0381 C58.0016,21.3671 57.6476,21.6691 57.2136,21.9451 C56.7796,22.2211 56.2866,22.4711 55.7346,22.6941 C55.1826,22.9181 54.6336,23.1051 54.0896,23.2561 C53.5426,23.4071 53.0226,23.5291 52.5306,23.6211 C52.0376,23.7131 51.6266,23.7661 51.2976,23.7791 C51.4556,23.9371 51.7026,24.0641 52.0376,24.1631 C52.3726,24.2621 52.7386,24.3341 53.1316,24.3801 C53.5266,24.4261 53.9336,24.4591 54.3546,24.4791 C54.7756,24.4981 55.1556,24.5151 55.4966,24.5281 C55.8396,24.5411 56.1196,24.5581 56.3366,24.5781 C56.5526,24.5971 56.6616,24.6331 56.6616,24.6861 C56.6616,24.7521 56.5696,24.8431 56.3856,24.9621 C56.2006,25.0801 55.9446,25.1951 55.6156,25.3071 C55.2866,25.4191 54.8936,25.5171 54.4336,25.6031 C53.9736,25.6881 53.4606,25.7311 52.8956,25.7311 M51.4956,21.9451 C52.3766,21.8141 53.2146,21.6131 54.0096,21.3441 C54.8046,21.0751 55.5166,20.7421 56.1486,20.3481 C55.6226,20.3481 55.1076,20.3941 54.6006,20.4861 C54.0946,20.5781 53.6286,20.6961 53.2006,20.8411 C52.7736,20.9861 52.4116,21.1571 52.1166,21.3531 C51.8206,21.5511 51.6146,21.7481 51.4956,21.9451" id="Fill-46"></path>
                        <path d="M62.7818,24.5085 C62.8998,24.5085 63.0518,24.5055 63.2348,24.4985 C63.4178,24.4925 63.6158,24.4855 63.8258,24.4795 C64.0368,24.4725 64.2338,24.4655 64.4178,24.4595 C64.6018,24.4525 64.7528,24.4495 64.8708,24.4495 C65.2528,24.4495 65.5098,24.4925 65.6408,24.5785 C65.7708,24.6655 65.8148,24.7685 65.7678,24.8885 C65.7228,25.0085 65.6038,25.1315 65.4128,25.2575 C65.2228,25.3835 65.0028,25.4935 64.7528,25.5865 C64.3588,25.7325 63.8888,25.8595 63.3438,25.9655 C62.7968,26.0715 62.2628,26.1255 61.7358,26.1255 C60.8298,26.1255 60.1398,25.9385 59.6658,25.5635 C59.1928,25.1895 59.0148,24.6865 59.1328,24.0545 C59.1868,23.7395 59.3178,23.4665 59.5278,23.2365 C59.7378,23.0075 59.9878,22.8005 60.2778,22.6155 C60.5668,22.4315 60.8778,22.2675 61.2138,22.1225 C61.5488,21.9785 61.8678,21.8465 62.1698,21.7285 C62.2488,21.6885 62.3838,21.6395 62.5738,21.5805 C62.7648,21.5215 62.9588,21.4595 63.1568,21.3935 C63.3528,21.3275 63.5278,21.2685 63.6788,21.2155 C63.8298,21.1625 63.8978,21.1245 63.8848,21.0975 C63.8588,21.0585 63.7148,21.0255 63.4518,20.9995 C63.1878,20.9725 62.8598,20.9595 62.4658,20.9595 C62.0978,20.9595 61.7948,20.9895 61.5588,21.0475 C61.3218,21.1075 61.0388,21.1575 60.7108,21.1965 C60.5008,21.1045 60.3368,20.9825 60.2178,20.8315 C60.0998,20.6805 60.0368,20.5155 60.0298,20.3385 C60.0238,20.1605 60.0808,19.9865 60.1978,19.8165 C60.3168,19.6455 60.5008,19.5005 60.7508,19.3815 C60.9208,19.3425 61.1678,19.2935 61.4898,19.2345 C61.8128,19.1745 62.2028,19.1455 62.6628,19.1455 C62.9128,19.1455 63.2248,19.1785 63.5998,19.2435 C63.9748,19.3095 64.3358,19.4115 64.6848,19.5485 C65.0318,19.6865 65.3308,19.8625 65.5808,20.0785 C65.8298,20.2955 65.9558,20.5595 65.9558,20.8745 C65.9558,21.1625 65.8578,21.4245 65.6598,21.6605 C65.4638,21.8955 65.2138,22.1125 64.9108,22.3085 C64.6088,22.5055 64.2838,22.6885 63.9348,22.8585 C63.5858,23.0285 63.2548,23.1795 62.9388,23.3105 C62.8338,23.3495 62.6888,23.4025 62.5048,23.4675 C62.3218,23.5325 62.1328,23.6015 61.9438,23.6735 C61.7528,23.7465 61.5848,23.8215 61.4398,23.9005 C61.2958,23.9785 61.2168,24.0505 61.2038,24.1155 C61.1778,24.2465 61.2988,24.3455 61.5688,24.4105 C61.8378,24.4755 62.2428,24.5085 62.7818,24.5085" id="Fill-52"></path>
                        <path d="M79.9149,24.9816 C79.9149,25.1266 79.7629,25.2546 79.4609,25.3666 C79.1579,25.4776 78.7939,25.5736 78.3669,25.6516 C77.9399,25.7316 77.4899,25.7896 77.0159,25.8296 C76.5439,25.8696 76.1419,25.8886 75.8129,25.8886 C75.3669,25.8886 74.8929,25.8756 74.3939,25.8496 C73.8949,25.8226 73.3889,25.7636 72.8759,25.6716 C72.3639,25.5796 71.8599,25.4546 71.3679,25.2976 C70.8749,25.1396 70.4119,24.9296 69.9769,24.6656 C69.8849,24.8766 69.7509,25.2276 69.5729,25.7206 C69.3959,26.2136 69.2059,26.7556 69.0009,27.3476 C68.7979,27.9396 68.5969,28.5436 68.4009,29.1616 C68.2029,29.7796 68.0389,30.3186 67.9069,30.7786 C67.7229,31.4486 67.5629,31.9346 67.4249,32.2386 C67.2859,32.5396 67.1709,32.6906 67.0799,32.6906 C66.9869,32.6906 66.9179,32.5886 66.8719,32.3856 C66.8259,32.1806 66.7959,31.9346 66.7839,31.6456 C66.7709,31.3566 66.7669,31.0546 66.7739,30.7386 C66.7799,30.4236 66.7899,30.1606 66.8029,29.9506 C66.8549,29.1616 66.9769,28.3006 67.1679,27.3676 C67.3589,26.4336 67.6109,25.4676 67.9269,24.4686 C68.2419,23.4706 68.6169,22.4516 69.0509,21.4126 C69.4849,20.3746 69.9639,19.3496 70.4899,18.3366 C71.0159,17.3246 71.5849,16.3456 72.1959,15.3996 C72.8079,14.4526 73.4539,13.5716 74.1379,12.7576 C74.3479,12.7436 74.5519,12.7606 74.7479,12.8056 C74.9459,12.8526 75.1209,12.9376 75.2709,13.0626 C75.4219,13.1876 75.5309,13.3526 75.5969,13.5556 C75.6629,13.7596 75.6759,14.0056 75.6359,14.2946 C75.2949,14.6766 74.7879,15.3696 74.1179,16.3756 C73.4479,17.3806 72.6589,18.6926 71.7519,20.3086 C72.1199,20.1906 72.5139,20.0886 72.9349,20.0036 C73.3559,19.9176 73.7639,19.8486 74.1579,19.7956 C74.5519,19.7436 74.9099,19.7036 75.2329,19.6776 C75.5539,19.6516 75.8009,19.6446 75.9719,19.6586 C76.2349,19.8546 76.3919,20.1446 76.4449,20.5256 C76.4959,20.9076 76.3789,21.2686 76.0899,21.6096 C76.0249,21.6226 75.8729,21.6496 75.6359,21.6886 C75.3999,21.7286 75.1209,21.7806 74.7989,21.8466 C74.4759,21.9126 74.1249,21.9846 73.7439,22.0636 C73.3629,22.1426 72.9969,22.2286 72.6489,22.3206 C72.3009,22.4116 71.9849,22.5136 71.7029,22.6256 C71.4199,22.7376 71.2129,22.8456 71.0819,22.9506 C72.3169,23.3196 73.4709,23.6016 74.5419,23.7986 C75.6129,23.9956 76.5469,24.1536 77.3419,24.2716 C78.1369,24.3906 78.7649,24.4986 79.2259,24.5976 C79.6849,24.6956 79.9149,24.8236 79.9149,24.9816" id="Fill-56"></path>
                        <path d="M79.922,23.1084 C79.922,22.8064 79.991,22.5894 80.129,22.4584 C80.267,22.3264 80.429,22.2544 80.613,22.2414 C80.625,21.9124 80.835,21.5674 81.243,21.2054 C81.651,20.8444 82.171,20.5154 82.801,20.2204 C83.432,19.9244 84.126,19.6844 84.881,19.5004 C85.637,19.3164 86.369,19.2314 87.08,19.2444 C87.421,19.2444 87.816,19.2904 88.263,19.3824 C88.709,19.4744 89.13,19.6224 89.524,19.8264 C89.919,20.0294 90.254,20.3084 90.531,20.6634 C90.806,21.0184 90.944,21.4594 90.944,21.9844 C90.944,22.6154 90.753,23.1644 90.373,23.6314 C89.992,24.0974 89.501,24.4824 88.903,24.7854 C88.306,25.0874 87.639,25.3104 86.902,25.4554 C86.166,25.5994 85.443,25.6714 84.733,25.6714 C84.22,25.6714 83.681,25.6294 83.117,25.5434 C82.552,25.4574 82.032,25.3144 81.559,25.1104 C81.085,24.9064 80.695,24.6404 80.386,24.3114 C80.077,23.9834 79.922,23.5814 79.922,23.1084 M82.663,21.7524 C82.597,21.7774 82.499,21.8184 82.367,21.8714 C82.236,21.9244 82.091,21.9844 81.933,22.0504 C81.776,22.1164 81.618,22.1824 81.46,22.2494 C81.302,22.3154 81.164,22.3684 81.045,22.4084 C81.112,22.4344 81.178,22.4714 81.243,22.5184 C81.309,22.5644 81.374,22.6134 81.44,22.6664 C81.572,22.9184 81.905,23.1344 82.436,23.3134 C82.968,23.4924 83.635,23.5814 84.438,23.5814 C84.859,23.5814 85.325,23.5354 85.838,23.4434 C86.35,23.3504 86.83,23.2334 87.276,23.0944 C87.724,22.9554 88.098,22.7964 88.4,22.6174 C88.703,22.4384 88.854,22.2694 88.854,22.1094 C88.854,21.9504 88.775,21.8214 88.617,21.7214 C88.459,21.6224 88.259,21.5434 88.016,21.4834 C87.772,21.4234 87.503,21.3834 87.207,21.3644 C86.913,21.3444 86.626,21.3344 86.35,21.3344 C85.759,21.3344 85.144,21.3644 84.507,21.4234 C83.869,21.4834 83.255,21.5924 82.663,21.7524" id="Fill-60"></path>
                        <path d="M99.2847,24.8239 C99.2847,24.7579 99.2907,24.6599 99.3047,24.5279 C99.3167,24.3969 99.3337,24.2589 99.3537,24.1139 C99.3737,23.9699 99.3957,23.8249 99.4227,23.6809 C99.4487,23.5359 99.4687,23.4239 99.4817,23.3449 C99.1797,23.6479 98.8567,23.9359 98.5167,24.2129 C98.1727,24.4889 97.8257,24.7319 97.4707,24.9429 C97.1157,25.1529 96.7607,25.3239 96.4057,25.4549 C96.0517,25.5859 95.7087,25.6519 95.3807,25.6519 C94.4867,25.6519 93.7997,25.4389 93.3197,25.0109 C92.8407,24.5839 92.6007,23.8969 92.6007,22.9509 C92.6007,22.5039 92.6737,22.0269 92.8177,21.5209 C92.9627,21.0159 93.2707,20.4139 93.7437,19.7169 C93.9417,19.4939 94.1257,19.3359 94.2957,19.2439 C94.4667,19.1529 94.6177,19.1059 94.7497,19.1059 C95.0257,19.1059 95.2127,19.2279 95.3117,19.4709 C95.4097,19.7139 95.4597,20.0129 95.4597,20.3679 C95.2757,20.7489 95.0747,21.1399 94.8577,21.5409 C94.6407,21.9419 94.5327,22.3729 94.5327,22.8329 C94.5327,23.2139 94.6217,23.4769 94.7997,23.6219 C94.9757,23.7659 95.1767,23.8379 95.4007,23.8379 C95.6897,23.8379 96.0347,23.7199 96.4357,23.4829 C96.8367,23.2469 97.2367,22.9639 97.6377,22.6349 C98.0387,22.3069 98.4197,21.9619 98.7827,21.5999 C99.1437,21.2389 99.4227,20.9329 99.6197,20.6829 C99.8437,20.3939 100.0797,20.1709 100.3297,20.0129 C100.5787,19.8549 100.7957,19.7769 100.9807,19.7769 C101.2947,19.7769 101.4897,19.9739 101.5617,20.3679 C101.6347,20.7629 101.5517,21.3019 101.3147,21.9849 C101.1707,22.4189 101.0497,22.7769 100.9507,23.0589 C100.8517,23.3419 100.7637,23.5989 100.6847,23.8279 C100.6057,24.0579 100.5337,24.2849 100.4677,24.5079 C100.4017,24.7319 100.3357,24.9949 100.2707,25.2969 C100.2187,25.5069 100.1677,25.7209 100.1217,25.9379 C100.0767,26.1549 100.0227,26.3229 99.9647,26.4409 C99.9057,26.5589 99.8367,26.5979 99.7577,26.5589 C99.6787,26.5199 99.5807,26.3479 99.4617,26.0469 C99.3567,25.7829 99.3007,25.5569 99.2947,25.3659 C99.2877,25.1759 99.2847,24.9949 99.2847,24.8239 M97.9637,18.3569 C97.1617,18.3569 96.5307,18.1009 96.0707,17.5869 C95.6097,17.0749 95.3477,16.4119 95.2817,15.5959 C95.3477,15.4389 95.4467,15.3199 95.5777,15.2419 C95.7087,15.1619 95.8657,15.1229 96.0517,15.1229 C96.1947,15.1229 96.3657,15.1789 96.5637,15.2899 C96.7607,15.4019 96.8597,15.5369 96.8597,15.6949 C96.8597,15.7609 96.8787,15.8529 96.9187,15.9709 C96.9577,16.0899 97.0197,16.2049 97.1067,16.3159 C97.1907,16.4279 97.3017,16.5269 97.4407,16.6109 C97.5787,16.6979 97.7467,16.7399 97.9437,16.7399 C98.2987,16.7399 98.6307,16.6979 98.9397,16.6109 C99.2477,16.5269 99.5467,16.4079 99.8367,16.2569 C100.1257,16.1059 100.4017,15.9349 100.6647,15.7449 C100.9277,15.5539 101.1967,15.3529 101.4727,15.1429 C101.7097,14.9589 101.9487,14.8009 102.1937,14.6699 C102.4357,14.5389 102.6167,14.4399 102.7357,14.3739 C102.9587,14.2689 103.0907,14.2589 103.1297,14.3439 C103.1697,14.4299 103.1757,14.5319 103.1497,14.6499 C103.1217,14.7549 103.0707,14.8899 102.9917,15.0549 C102.9127,15.2189 102.8337,15.3529 102.7557,15.4579 C102.5177,15.7609 102.2447,16.0829 101.9367,16.4239 C101.6277,16.7659 101.2747,17.0819 100.8827,17.3719 C100.4877,17.6599 100.0507,17.8959 99.5707,18.0809 C99.0907,18.2649 98.5547,18.3569 97.9637,18.3569" id="Fill-66"></path>
                        <path d="M11.6279,25.0657 C11.4389,26.1097 11.0929,27.0847 10.5899,27.9897 C10.0869,28.8957 9.4769,29.7157 8.7609,30.4517 C8.0429,31.1877 7.2509,31.8317 6.3839,32.3857 C5.5149,32.9387 4.6169,33.3847 3.6849,33.7247 C3.0939,33.9387 2.6109,34.0837 2.2329,34.1587 C1.8559,34.2347 1.5539,34.2747 1.3269,34.2807 C1.1009,34.2877 0.9439,34.2687 0.8559,34.2247 C0.7669,34.1807 0.7239,34.1397 0.7239,34.1027 C0.7239,34.0767 0.7669,34.0387 0.8559,33.9897 C0.9439,33.9387 1.0599,33.8787 1.2049,33.8097 C1.3499,33.7407 1.5139,33.6617 1.6959,33.5737 C1.8779,33.4857 2.0639,33.3917 2.2519,33.2907 C3.1069,32.8387 3.9439,32.2907 4.7609,31.6497 C5.5779,31.0077 6.3179,30.3077 6.9779,29.5457 C7.6379,28.7857 8.1939,27.9837 8.6469,27.1417 C9.0999,26.2987 9.3949,25.4497 9.5339,24.5947 C8.6789,24.7707 7.8169,24.9617 6.9499,25.1697 C6.0809,25.3777 5.1879,25.4807 4.2709,25.4807 C3.8169,25.4807 3.3649,25.4427 2.9129,25.3677 C2.4599,25.2917 2.0509,25.1637 1.6859,24.9807 C1.3209,24.7987 1.0259,24.5627 0.7989,24.2737 C0.5739,23.9837 0.4599,23.6257 0.4599,23.1977 C0.4599,22.6827 0.6269,22.1927 0.9599,21.7267 C1.2929,21.2617 1.7259,20.8527 2.2609,20.5007 C2.7959,20.1487 3.3959,19.8687 4.0629,19.6607 C4.7299,19.4537 5.4029,19.3497 6.0809,19.3497 C6.7729,19.3497 7.3899,19.4157 7.9299,19.5477 C8.4709,19.6797 8.9329,19.8307 9.3169,20.0007 C9.7009,20.1697 10.0019,20.3377 10.2219,20.5007 C10.4429,20.6647 10.5839,20.7707 10.6469,20.8207 C10.7349,21.0607 10.7789,21.2827 10.7789,21.4907 C10.7789,21.6987 10.7219,21.8777 10.6089,22.0287 C10.4959,22.1797 10.3189,22.2897 10.0819,22.3587 C9.8419,22.4287 9.5339,22.4307 9.1569,22.3687 C8.7039,21.9907 8.2379,21.7427 7.7609,21.6227 C7.2819,21.5037 6.7419,21.4437 6.1379,21.4437 C5.6979,21.4437 5.2669,21.5067 4.8459,21.6327 C4.4239,21.7587 4.0499,21.9027 3.7229,22.0667 C3.3959,22.2297 3.1319,22.3997 2.9319,22.5757 C2.7299,22.7527 2.6289,22.8847 2.6289,22.9717 C2.6289,23.0467 2.6759,23.1107 2.7709,23.1607 C2.8649,23.2107 2.9809,23.2547 3.1199,23.2927 C3.2579,23.3307 3.3999,23.3617 3.5449,23.3877 C3.6889,23.4117 3.8119,23.4307 3.9119,23.4437 C4.6169,23.5067 5.2859,23.4657 5.9219,23.3207 C6.5559,23.1767 7.2509,23.0157 8.0049,22.8397 C8.2439,22.7767 8.4649,22.7237 8.6659,22.6787 C8.8669,22.6357 9.0369,22.6137 9.1759,22.6137 C9.6659,22.6137 10.0819,22.6787 10.4199,22.8117 C10.7599,22.9437 11.0299,23.1197 11.2319,23.3397 C11.4329,23.5607 11.5649,23.8177 11.6279,24.1137 C11.6909,24.4087 11.6909,24.7267 11.6279,25.0657" id="Fill-73"></path>
                        <path d="M19.9657,25.2732 C19.8397,24.8962 19.7807,24.5282 19.7867,24.1702 C19.7927,23.8112 19.7897,23.5312 19.7767,23.3302 C19.4997,23.5572 19.1767,23.8202 18.8057,24.1222 C18.4347,24.4242 18.0417,24.7362 17.6267,25.0562 C17.2117,25.3772 16.7837,25.6982 16.3437,26.0182 C15.9037,26.3392 15.4787,26.6412 15.0707,26.9242 C14.6617,27.2062 14.2757,27.4612 13.9107,27.6882 C13.5457,27.9142 13.2307,28.0902 12.9667,28.2162 C12.5897,28.3922 12.2377,28.5402 11.9107,28.6592 C11.5837,28.7792 11.3047,28.8672 11.0707,28.9242 C10.8387,28.9802 10.6587,29.0082 10.5337,29.0082 C10.4077,29.0082 10.3517,28.9712 10.3637,28.8952 C10.3637,28.8452 10.4387,28.7572 10.5897,28.6312 C10.7407,28.5052 10.9207,28.3732 11.1277,28.2352 C11.3347,28.0962 11.5427,27.9582 11.7507,27.8202 C11.9577,27.6812 12.1247,27.5682 12.2497,27.4802 C12.4517,27.3542 12.7407,27.1432 13.1177,26.8482 C13.4947,26.5532 13.9227,26.2072 14.4007,25.8112 C14.8777,25.4152 15.3787,24.9802 15.8997,24.5092 C16.4227,24.0372 16.9197,23.5632 17.3907,23.0852 C17.8627,22.6072 18.2837,22.1452 18.6547,21.6982 C19.0257,21.2522 19.3047,20.8462 19.4937,20.4812 C19.5697,20.3562 19.6677,20.2332 19.7867,20.1132 C19.9067,19.9942 20.0387,19.8972 20.1837,19.8212 C20.3267,19.7462 20.4777,19.6952 20.6347,19.6702 C20.7927,19.6452 20.9467,19.6582 21.0977,19.7082 C21.2747,19.7712 21.4147,19.8592 21.5227,19.9722 C21.6287,20.0862 21.7107,20.2082 21.7677,20.3402 C21.8237,20.4722 21.8577,20.6072 21.8707,20.7452 C21.8837,20.8842 21.8837,21.0102 21.8707,21.1232 C21.8707,21.3742 21.8397,21.6392 21.7767,21.9152 C21.7137,22.1922 21.6607,22.4782 21.6167,22.7732 C21.5727,23.0692 21.5477,23.3622 21.5407,23.6512 C21.5347,23.9412 21.5887,24.2232 21.7007,24.5002 C21.7007,24.6762 21.6887,24.8522 21.6627,25.0282 C21.6387,25.1792 21.6077,25.3362 21.5697,25.4992 C21.5317,25.6632 21.4757,25.7952 21.3997,25.8962 C21.2987,26.0212 21.1827,26.0812 21.0497,26.0752 C20.9177,26.0692 20.7837,26.0242 20.6457,25.9432 C20.5067,25.8612 20.3777,25.7572 20.2587,25.6312 C20.1387,25.5062 20.0407,25.3862 19.9657,25.2732" id="Fill-78"></path>
                        <path d="M30.5871,18.7462 C30.8381,18.5952 31.0801,18.5202 31.3131,18.5202 C31.5461,18.5202 31.7311,18.6082 31.8691,18.7842 C32.0201,18.7582 32.1461,18.7492 32.2471,18.7562 C32.3471,18.7622 32.4291,18.7652 32.4921,18.7652 C32.7941,18.8402 33.0111,18.9472 33.1431,19.0852 C33.2751,19.2242 33.3341,19.3752 33.3211,19.5382 C33.3091,19.7022 33.2311,19.8622 33.0861,20.0202 C32.9411,20.1772 32.7561,20.2992 32.5301,20.3872 L31.7371,20.5192 C31.6621,20.6702 31.5581,20.9222 31.4261,21.2742 C31.2941,21.6262 31.1561,22.0282 31.0111,22.4812 C30.8661,22.9342 30.7221,23.4242 30.5771,23.9522 C30.4321,24.4812 30.3101,25.0032 30.2101,25.5182 C30.1471,25.8452 30.0421,26.1252 29.8981,26.3582 C29.7531,26.5912 29.6311,26.7072 29.5301,26.7072 C29.3921,26.7072 29.2761,26.5872 29.1811,26.3482 C29.0871,26.1092 29.0271,25.7142 29.0021,25.1602 C29.0021,25.0972 29.0141,24.9212 29.0401,24.6322 C29.0641,24.3422 29.0901,24.0592 29.1151,23.7822 C28.4111,23.9212 27.7261,24.1412 27.0591,24.4432 C26.3921,24.7452 25.7391,25.0222 25.0971,25.2732 C24.8071,25.3612 24.4741,25.4522 24.0971,25.5472 C23.7201,25.6412 23.4111,25.6882 23.1731,25.6882 C22.9341,25.6882 22.8211,25.6162 22.8331,25.4712 C22.8461,25.3272 23.0981,25.0652 23.5881,24.6882 C24.0531,24.3242 24.5901,24.0032 25.2001,23.7262 C25.8101,23.4502 26.4551,23.1662 27.1341,22.8772 C26.6441,22.7262 26.2761,22.5442 26.0311,22.3302 C25.7851,22.1162 25.6631,21.8902 25.6631,21.6512 C25.6631,21.4122 25.8071,21.1612 26.0971,20.8972 C26.3861,20.6322 26.7571,20.3842 27.2101,20.1512 C27.6631,19.9192 28.1721,19.7082 28.7371,19.5192 C29.3041,19.3312 29.8701,19.1862 30.4361,19.0852 L30.5871,18.7462 Z M27.6821,21.5562 C27.6821,21.5942 27.8201,21.6542 28.0971,21.7362 C28.3731,21.8182 28.8511,21.8902 29.5301,21.9532 C29.5931,21.7012 29.6371,21.5072 29.6621,21.3682 C29.6871,21.2302 29.7381,21.0602 29.8131,20.8592 C29.1721,21.0102 28.6561,21.1522 28.2671,21.2832 C27.8761,21.4152 27.6821,21.5072 27.6821,21.5562 L27.6821,21.5562 Z" id="Fill-82"></path>
                    </g>
                </g>
            </g>
        </g>
    </g>
</svg>