<?xml version="1.0" encoding="UTF-8" standalone="no"?>
<svg width="16px" height="16px" viewBox="0 0 16 16" version="1.1" xmlns="http://www.w3.org/2000/svg" xmlns:xlink="http://www.w3.org/1999/xlink" xmlns:sketch="http://www.bohemiancoding.com/sketch/ns">
    <!-- Generator: Sketch 3.3.1 (12002) - http://www.bohemiancoding.com/sketch -->
    <title>parking</title>
    <desc>Created with Sketch.</desc>
    <defs></defs>
    <g id="Меню-и-главная" stroke="none" stroke-width="1" fill="none" fill-rule="evenodd" sketch:type="MSPage">
        <g id="Адреса" sketch:type="MSArtboardGroup" transform="translate(-570.000000, -543.000000)" fill="#765646">
            <g id="пн-–-пт-с-8:00-до-24-+-ул.-Рождественка,-до-+-Рождественка-3" sketch:type="MSLayerGroup" transform="translate(498.000000, 379.000000)">
                <g id="parking" transform="translate(72.000000, 164.000000)" sketch:type="MSShapeGroup">
                    <path d="M1.99406028,1 L1.99406028,1 C1.44579254,1 1,1.44606163 1,1.99406028 L1,14.0059397 C1,14.5542075 1.44606163,15 1.99406028,15 L14.0059397,15 C14.5542075,15 15,14.5539384 15,14.0059397 L15,1.99406028 C15,1.44579254 14.5539384,1 14.0059397,1 L1.99406028,1 Z M1.99406028,0 L1.99406028,0 L14.0059397,0 C15.1054862,0 16,0.892771196 16,1.99406028 L16,14.0059397 C16,15.1054862 15.1072288,16 14.0059397,16 L1.99406028,16 C0.894513756,16 0,15.1072288 0,14.0059397 L0,1.99406028 C0,0.894513756 0.892771196,0 1.99406028,0 L1.99406028,0 Z" id="Shape"></path>
                    <path d="M7,12 L7,4.5 L6.5,5 C7.16510874,5 7.4966306,5.00986672 7.89220631,5.05507538 C9.30443038,5.21647242 10,5.7530547 10,7 C10,8.2469453 9.30443037,8.78352759 7.8922063,8.94492463 C7.49663059,8.99013328 7.16510873,9 6.5,9 L6,9 L6,9.5 L6,12 L7,12 L7,12 Z M6,12 L7,12 L7,9.5 L6.5,10 C7.20223821,10 7.56056976,9.98933537 8.00575289,9.9384573 C9.86548977,9.72591594 11,8.85072233 11,7 C11,5.14927768 9.86548977,4.27408407 8.00575291,4.0615427 C7.56056977,4.01066463 7.20223822,4 6.5,4 L6,4 L6,4.5 L6,12 L6,12 Z" id="Shape"></path>
                </g>
            </g>
        </g>
    </g>
</svg>